85

8
tbDsgOR7-37529038
0Wx7UyGM-32982765
0_mMEoCr-32415612
bIXF5oFl-33445074
ePQWGgFh-83824474
SONWALBF-14867789
Ytf58nLn-53722936
_Stl2sQP-61562589
1 7 3 4 5 6 8 2
1 3 6 2 7 4 5 8
7 1 2 8 5 6 4 3
1 2 3 4 5 6 7 8
6 2 5 1 4 3 8 7
1 2 3 4 5 6 7 8
1 2 3 4 5 6 7 8
1 2 7 4 5 6 3 8
7 5 3 8 1 2 6 4

2
IFgV5zXi-27624172
Q8hUpE9r-01063481
2 1
2 1
2 1

12
f69UkZse-23330281
0ME2an8c-05014439
a441LQ1D-09304543
kbn2VV3f-91184185
j5p5NR2v-42554695
Tzt4ZqXp-52364114
30J2Bkvp-50084593
Q8uz7Inq-10091916
46NPZDQT-38732052
E3YeUKZW-73856497
n5p5ryhw-03773629
_fHMO4T1-24356026
3 2 1 4 8 9 12 6 5 10 11 7
3 6 10 5 4 8 1 12 9 7 11 2
3 11 8 12 5 6 7 1 4 10 2 9
7 11 6 12 4 2 1 8 3 5 10 9
10 7 3 9 5 4 1 11 2 6 8 12
8 4 2 7 12 10 9 6 5 3 1 11
8 2 3 11 5 1 7 6 12 10 9 4
6 2 7 4 5 9 10 3 1 8 11 12
1 6 10 12 5 2 7 4 9 3 11 8
1 4 3 2 5 6 7 10 9 8 11 12
1 11 6 4 5 3 7 8 9 10 12 2
10 9 8 1 4 3 12 5 7 6 2 11
8 7 5 4 10 12 6 11 1 9 2 3
4 11 2 1 5 6 3 8 9 12 7 10
7 3 2 10 5 12 1 8 9 4 11 6
4 2 7 10 8 9 3 12 6 1 11 5
1 11 9 4 10 8 5 12 7 6 2 3
1 2 3 7 9 6 4 8 5 10 12 11
1 6 11 4 8 2 3 9 7 10 5 12
5 12 3 4 10 7 9 2 6 1 11 8
10 2 3 4 5 6 9 8 7 1 11 12
9 7 3 11 5 6 1 4 2 12 8 10
7 9 3 6 1 11 5 12 10 8 4 2
9 10 12 8 2 5 11 6 4 3 7 1
1 2 3 4 5 12 11 8 9 10 7 6
1 2 3 4 11 6 7 8 9 10 5 12
12 2 3 1 5 7 4 6 9 10 11 8
8 10 3 9 1 5 2 7 6 4 11 12
8 1 9 11 12 7 6 2 3 4 10 5
1 2 3 4 5 6 7 8 9 10 11 12
4 7 1 12 5 10 2 8 11 3 6 9
4 2 3 6 8 7 11 9 1 12 5 10
9 2 8 4 3 6 7 12 10 5 11 1
11 3 6 5 9 10 2 1 7 12 8 4

18
PXwPPRc9-81464923
121SCnAS-35992476
L1R0766k-87223086
4ZoKfLNb-93627406
oaylv5hn-61596566
xHrIBM5Y-69338202
MQTCNxZj-60105348
fhIwZiv7-18139087
Lg34qOAX-34720213
niZFOhnB-23258286
kZhVRyWt-56673812
OVyz6sF9-27815258
wWt8onsg-87919652
vRyXeFt5-27158664
yo9YYpHg-24678651
YmFXoc5a-69471966
n_zBOQOD-87586770
uvfnNW1u-41467496
1 2 3 4 5 6 7 8 9 10 11 12 13 14 15 16 17 18
2 9 13 4 16 6 12 18 10 15 3 1 17 14 5 11 7 8
8 2 17 4 6 11 7 1 3 15 9 12 13 14 18 16 5 10
1 2 3 4 5 6 7 8 9 10 11 12 13 14 15 16 17 18
5 14 3 9 1 6 12 8 4 18 17 7 13 2 15 16 11 10
1 10 5 3 4 16 17 6 8 2 11 12 13 14 15 18 7 9
1 13 3 4 5 6 7 8 9 10 11 12 2 16 15 14 17 18
14 7 4 3 5 8 16 6 2 10 15 12 17 1 11 9 13 18
1 2 3 4 5 6 7 8 9 10 11 12 13 14 15 16 17 18
7 9 10 16 6 5 1 18 3 14 11 2 17 13 12 15 4 8
1 9 17 4 5 18 7 10 2 6 8 11 13 12 15 16 3 14
16 2 4 17 8 6 13 9 10 11 5 1 3 15 14 7 12 18
2 3 6 14 9 1 15 8 18 4 7 16 13 12 11 5 17 10
6 11 15 2 16 17 7 3 9 4 18 12 13 14 10 8 5 1
9 2 3 4 5 6 7 8 1 10 11 12 13 14 15 16 17 18
1 10 3 4 5 6 7 8 9 2 11 12 13 14 15 16 17 18
1 2 15 14 3 6 12 7 11 5 18 16 13 4 9 10 17 8

8
LdhI7brY-04857673
GifGZdLi-52292225
nS1OkVdJ-24414495
wIaWhkvj-46901998
aPNTU96R-09622060
1TBTdbB1-04258076
xHBqh3J6-86682754
4P2tI2hq-90510211
1 2 3 4 5 6 7 8
1 2 3 4 5 6 7 8
1 2 3 4 5 6 7 8
6 4 5 3 2 7 8 1
6 4 1 3 2 5 8 7
1 2 3 4 5 6 7 8
3 5 7 4 6 1 2 8
7 5 8 6 4 2 3 1
1 4 7 8 6 2 5 3
8 3 4 1 6 5 7 2
7 2 1 3 6 8 5 4
3 2 7 5 8 6 1 4
1 2 3 4 6 5 7 8
2 3 4 5 8 1 6 7
6 5 7 2 3 1 8 4
6 3 1 2 7 4 8 5
5 8 4 1 2 3 6 7
5 8 3 2 1 4 7 6
1 2 3 4 8 6 7 5
4 6 8 7 2 1 5 3
7 8 2 4 6 1 3 5
1 2 7 8 3 6 4 5
8 6 5 4 3 7 1 2
4 6 8 2 7 1 3 5
8 1 3 4 6 5 2 7
8 2 4 3 7 6 5 1
5 4 7 3 2 6 8 1
7 1 3 4 5 6 2 8

16
PkXO7ZWZ-00250622
Kt0qsBjG-44188574
LH3eY774-19920106
SKmTOabS-89359258
Ql2xvMow-12484493
r5zELnq4-52267858
MNlDMoWM-79534527
mXRGTufa-75414114
BHtfllpT-78223170
bZGpWIQb-81836697
_mGx3n4G-63275731
eQSJfcFn-19567248
L5VDHDeC-92962461
3UxVZ3Ax-51157805
3Lnf7_Xv-37413114
c31WrnIA-74678715
1 9 4 3 5 6 13 8 2 14 11 12 7 15 10 16
1 2 3 11 5 15 7 9 8 10 4 12 13 14 6 16
10 3 6 5 9 2 11 12 1 16 14 4 13 15 8 7
1 2 3 4 5 6 16 15 9 10 11 12 13 7 14 8
1 11 8 14 5 13 10 3 16 7 2 12 6 15 9 4
1 8 7 15 16 6 14 4 9 5 13 11 10 12 2 3
2 14 16 3 5 6 10 7 9 8 1 12 11 13 15 4
14 2 3 11 5 16 7 8 9 12 15 4 13 1 10 6
6 2 1 11 14 12 15 3 5 10 13 4 9 7 8 16
1 2 5 14 7 8 10 16 9 6 15 11 3 12 4 13
13 11 3 1 5 6 7 8 9 10 2 16 4 14 15 12
16 2 9 4 5 11 15 6 1 10 13 12 14 8 7 3
7 11 9 2 16 3 1 10 5 15 12 6 13 4 14 8
3 4 15 10 16 9 8 5 1 13 7 2 12 6 14 11
1 13 3 10 9 6 7 5 15 4 12 11 2 14 8 16
1 2 3 9 5 6 7 8 4 10 13 12 11 14 15 16
1 2 5 6 3 12 14 4 10 9 11 8 7 16 15 13
1 5 12 4 2 9 7 8 6 10 11 3 13 14 15 16
1 3 12 4 5 2 13 14 7 10 8 9 6 11 15 16
1 2 10 12 9 6 8 3 14 7 11 4 13 15 5 16
1 14 3 4 5 6 7 8 9 10 11 12 13 2 15 16
1 8 3 16 6 5 9 13 2 4 11 12 7 14 15 10
16 12 10 6 5 3 2 9 4 1 13 8 11 14 15 7
5 10 8 16 12 14 6 2 9 11 4 3 13 7 15 1
4 2 12 9 1 8 14 13 10 11 6 7 3 16 15 5
1 2 7 4 5 6 14 8 9 10 15 12 13 3 11 16
12 1 13 15 2 16 7 11 9 6 14 10 5 3 8 4
1 2 15 4 5 11 7 16 9 6 3 12 13 14 10 8
1 2 3 4 5 6 7 8 9 10 11 12 13 14 15 16
1 2 3 4 5 6 7 8 9 10 13 12 11 14 15 16
1 2 3 4 5 6 7 8 9 10 11 12 13 14 15 16
14 2 10 12 5 13 1 3 6 8 9 7 16 11 15 4
14 11 10 4 5 2 9 8 15 13 3 6 1 16 7 12
10 2 13 4 5 6 14 8 9 1 11 12 7 3 15 16
16 8 9 5 14 6 7 2 13 4 11 10 3 12 15 1
13 16 1 10 2 3 11 5 9 15 14 6 8 12 4 7

2
VsPyOBdD-72274012
naI3SYxt-98807615
1 2
2 1
1 2
1 2
2 1
1 2
1 2
2 1
1 2
2 1
1 2
2 1
1 2
1 2
2 1
2 1
1 2
2 1
1 2
2 1
2 1
1 2
1 2
2 1
2 1
1 2
1 2
1 2
2 1
2 1
2 1
2 1
1 2
2 1
2 1
2 1
2 1
2 1
1 2
2 1
1 2
2 1
1 2

15
M1xrqG7O-09686295
zDw2O5NF-14309221
ZTJlxODf-62894604
QTF33zPl-80382452
eboBt_Wi-92155501
kim91fgQ-75146606
5aqkH16N-24976376
VkrTrdrV-24450394
CGAj1Gif-36599830
lsXxdcA5-81727384
wJs1xB7X-30986268
zOevHqkM-32157671
IrFRVI76-86890250
eyfZwWW2-80165129
OGBBxADq-05076678
13 2 1 10 14 12 7 3 9 6 8 15 11 4 5
12 7 2 3 5 6 9 8 14 11 10 4 13 1 15
11 2 3 10 9 5 12 8 6 13 1 7 4 14 15
7 8 11 3 14 6 5 2 9 10 1 12 4 13 15
1 2 3 4 5 6 7 8 13 10 11 12 9 14 15
13 3 5 9 10 1 4 8 2 11 12 7 14 15 6
13 10 12 7 15 5 4 6 2 8 1 3 9 14 11
6 11 12 8 14 15 10 2 1 7 3 13 5 4 9
9 6 10 15 2 8 11 4 12 5 14 13 3 7 1
13 6 14 7 11 5 4 2 9 8 3 12 1 10 15
1 4 7 6 8 2 13 14 3 10 5 12 15 11 9
2 3 7 8 15 6 10 4 13 14 11 12 1 9 5
12 14 3 13 7 6 9 15 2 4 5 10 8 1 11
5 2 3 8 13 9 7 6 10 11 1 12 4 14 15
1 2 3 4 12 15 11 14 9 8 10 5 13 7 6
1 12 3 4 5 6 7 2 13 10 11 8 9 14 15
3 14 12 15 6 13 4 7 9 11 1 5 8 2 10
8 3 4 1 14 15 9 5 2 6 11 12 13 7 10
1 2 3 4 5 6 7 8 9 10 11 12 13 14 15
1 7 12 13 6 5 10 8 9 11 15 14 4 3 2
1 2 3 4 5 6 7 8 9 10 11 12 13 14 15
14 2 13 4 3 9 6 1 7 10 15 8 5 11 12
10 2 12 4 5 6 8 14 7 9 11 3 13 15 1
1 14 3 4 5 2 7 6 9 10 11 15 13 8 12
8 5 9 6 7 3 1 2 4 10 11 12 13 14 15
1 9 15 11 8 6 7 4 2 14 5 12 13 10 3
6 5 4 11 12 15 7 3 9 10 1 13 8 2 14
1 6 3 4 5 2 7 8 9 10 11 12 13 14 15
7 13 8 9 5 6 10 14 2 11 4 3 12 1 15
10 12 3 7 1 15 9 2 6 8 11 4 13 14 5
1 2 3 8 5 6 7 4 9 10 11 12 13 14 15
11 2 9 4 8 6 10 1 13 7 5 12 15 3 14
14 1 2 13 5 6 7 8 9 11 12 3 10 4 15
1 2 3 4 5 6 7 8 9 10 11 12 13 14 15
3 11 10 5 12 15 2 4 9 1 6 14 8 7 13
14 2 15 5 1 9 11 7 4 8 6 12 3 13 10
1 6 7 4 5 15 9 12 13 11 10 3 8 14 2
1 10 8 3 5 2 6 4 9 7 11 12 13 14 15
9 1 7 10 3 5 13 12 15 14 4 2 6 11 8

14
3GsnRPsL-71619803
jwCIvdAY-98737041
4JhUfWI1-50329830
bbcAKdQt-45383675
7HNEMQoM-73064257
zKE18m8o-55463748
ub7sVmJG-05566962
TQMTh4ko-90012803
S5sGqvrl-79334449
jadiOwnH-76694810
bnbQAFze-51541141
acz0QTfN-94504490
T43sbiFT-70872113
SXJ7nM2O-74302567
10 11 4 3 1 12 8 9 5 14 6 2 7 13
1 3 5 7 4 6 11 8 10 14 13 12 2 9
1 2 8 4 5 6 7 3 9 10 11 12 13 14
1 6 3 8 4 2 7 5 9 10 11 12 13 14
13 7 6 4 8 9 1 5 2 10 3 12 11 14
1 2 5 8 13 6 14 12 9 10 3 7 11 4
11 13 2 5 14 9 3 1 7 6 10 8 4 12
1 2 3 4 5 7 6 8 12 10 11 9 13 14
1 9 8 5 6 2 3 7 14 13 4 10 11 12
4 7 10 3 14 8 1 6 12 2 11 9 13 5
12 2 8 1 4 7 5 9 11 14 3 6 13 10
5 2 12 1 9 3 7 8 4 10 6 11 13 14
1 11 3 8 5 6 7 13 9 2 10 4 12 14
1 14 3 5 7 13 4 10 12 6 2 8 11 9
13 2 6 10 9 14 3 8 5 4 7 12 1 11
2 1 3 4 5 7 6 8 9 10 11 12 13 14
12 14 2 10 1 4 6 3 9 8 7 11 13 5
7 2 3 4 5 6 1 8 9 10 11 12 13 14
1 2 4 3 5 6 7 8 9 10 11 12 13 14
9 7 11 10 5 14 8 2 12 6 3 4 13 1
14 2 9 4 5 6 7 10 3 8 11 12 13 1
11 2 3 1 5 12 7 8 13 10 4 6 9 14
1 3 4 2 11 6 9 14 12 10 5 7 8 13
14 8 11 4 1 2 9 6 13 5 3 12 10 7
1 2 5 4 12 3 7 8 11 13 9 6 10 14
1 8 5 4 2 11 7 13 12 9 6 3 10 14
8 2 3 4 5 6 7 1 9 10 11 14 13 12
1 2 12 6 9 11 7 4 5 8 3 10 13 14
4 2 8 1 7 14 5 3 9 10 11 12 13 6
1 9 3 4 5 12 7 8 6 10 11 2 13 14
1 14 3 4 5 7 6 8 9 2 10 12 13 11
5 10 3 2 4 1 7 6 11 14 13 12 9 8
1 2 3 4 5 6 13 8 7 10 11 12 9 14
3 2 1 4 5 6 12 8 9 10 11 7 13 14
1 4 11 12 5 6 8 7 9 10 3 2 13 14
7 2 3 4 5 6 1 8 9 10 11 12 13 14
1 2 3 4 5 6 7 8 9 10 11 12 13 14
1 2 12 8 7 6 5 14 9 10 11 3 13 4
5 12 13 6 10 4 7 11 14 3 9 2 1 8
3 14 11 10 9 1 4 12 8 2 6 7 13 5
6 13 10 5 8 12 7 1 9 14 11 3 4 2
1 3 5 4 6 13 12 14 9 10 11 7 2 8
1 2 10 4 5 6 7 8 9 3 11 12 13 14
4 2 8 7 5 10 3 6 9 13 1 11 14 12
1 2 10 4 5 14 7 13 9 3 11 12 8 6
1 2 13 4 5 6 7 8 9 10 11 12 3 14
12 2 3 4 14 6 7 8 9 10 11 1 5 13
1 2 3 4 5 6 7 8 9 10 11 12 13 14

6
UZsA77O_-75581598
jLWE354T-90255621
lgNSY6pw-21132036
t9SGVLHd-70742894
W141Gu_s-49778941
UIgfuyme-76469966
5 3 1 4 6 2
3 6 1 5 2 4
1 2 3 4 5 6
5 6 3 2 1 4
2 5 6 4 1 3
1 5 2 3 6 4
4 6 5 2 1 3
5 3 2 4 1 6
6 5 3 2 4 1
1 3 5 4 2 6
6 3 5 4 1 2
1 2 3 4 5 6
1 6 2 4 5 3
1 2 3 4 5 6
1 2 3 4 5 6
1 6 2 5 4 3
1 2 3 4 5 6
1 2 5 4 6 3
3 6 2 1 5 4
5 2 1 3 4 6
5 6 3 4 2 1
1 2 6 4 5 3
1 2 4 3 5 6
4 6 1 5 3 2
4 5 3 2 1 6

15
SJ_eLpVb-81496771
yqi7bqcA-47068229
QX3u_WC3-73144868
xD3UGfHb-29114960
RIZzFKk_-96525406
xEGPHhQc-27489220
rMwTrsPW-24494627
J0miep2Y-93018805
G08oayrG-35087612
Qph6ZFHo-89102535
QlFNct3i-57479233
6ce0axBA-35379930
xJPYsS8a-05929824
hjsCkzG2-75429722
8fclDnc1-40624134
6 14 5 15 4 12 7 8 9 3 10 2 13 1 11
1 2 3 4 5 6 7 8 9 10 11 12 13 14 15
8 14 6 3 10 11 7 9 2 13 4 12 1 15 5
1 5 2 6 11 3 12 15 14 10 8 4 13 7 9
8 1 5 4 11 9 14 2 10 6 3 12 7 13 15
5 2 4 10 7 8 1 9 6 15 3 12 13 14 11
6 7 2 11 14 10 3 1 12 13 9 5 4 8 15
8 2 15 4 5 6 12 7 9 10 1 11 3 14 13
1 2 3 4 5 6 7 8 9 10 11 12 13 14 15
1 2 13 4 5 6 7 14 9 8 12 11 15 10 3
15 2 7 4 1 5 3 12 9 14 11 8 13 10 6
1 2 3 9 12 10 6 4 8 7 11 5 13 14 15
5 3 12 4 15 11 7 8 6 10 9 2 13 14 1
15 2 1 9 13 5 6 3 10 4 8 7 12 14 11
1 5 3 9 2 6 7 8 10 4 14 12 13 11 15
2 6 3 7 13 12 15 11 1 10 8 9 5 14 4
1 2 3 4 12 6 7 8 5 10 11 9 13 14 15
14 13 10 4 15 11 5 7 2 12 6 3 9 1 8
13 2 6 7 3 10 9 5 4 15 1 14 8 11 12
1 8 6 10 4 3 7 2 9 5 11 13 12 14 15
1 2 3 4 5 6 7 8 9 10 11 12 13 14 15
5 12 3 11 6 4 7 13 9 10 1 2 8 14 15
1 12 15 6 10 3 5 2 11 4 9 8 14 7 13
1 5 9 7 2 6 11 8 3 10 4 12 13 14 15
1 2 3 4 5 10 15 12 9 6 8 13 11 14 7
1 12 14 4 5 6 15 8 9 10 11 7 13 3 2
9 6 10 3 8 11 15 1 13 12 5 4 7 14 2
1 2 14 4 5 8 7 11 9 6 10 12 13 3 15
1 7 2 8 11 4 3 5 9 10 6 13 12 14 15
1 2 3 4 5 6 7 8 9 10 11 12 13 14 15

12
i5V8psUh-01837213
EYtIfaXY-00483120
d7UbG1gA-95867526
IOLXRL_d-96939974
zRZovMRY-41537578
DjBB17WB-55979880
M16JOe60-02357314
BbmP3lgj-84601110
hpz44yqp-78324567
tTmZ76gd-78308709
Lryax9SI-63825252
Wag38BHm-70984556
4 8 6 3 9 11 5 12 7 10 1 2
6 2 3 10 5 1 11 8 7 9 4 12
4 2 3 6 10 9 7 8 1 12 11 5
1 8 3 4 5 6 7 2 12 10 11 9
5 9 4 7 1 10 12 11 6 2 8 3
11 1 7 10 6 4 5 8 2 9 12 3
9 8 7 2 12 1 5 11 6 10 3 4
7 5 11 4 9 10 12 2 6 8 3 1
10 11 7 4 8 2 5 6 9 1 12 3
1 2 3 4 5 6 7 8 9 10 11 12
1 10 3 11 2 5 7 8 9 6 4 12
12 4 11 3 5 10 7 8 9 6 2 1
11 1 8 12 2 7 9 5 3 10 6 4
6 2 3 4 5 1 7 11 9 10 8 12
1 9 3 7 5 11 4 6 2 10 12 8
9 7 1 11 5 3 2 4 6 12 8 10
2 5 8 9 10 12 3 1 11 7 6 4
9 10 4 7 5 3 1 8 11 2 6 12
4 7 10 12 3 5 6 8 9 1 11 2
1 6 3 4 5 2 7 8 9 10 11 12
1 2 3 4 10 6 7 8 9 5 11 12
1 4 12 7 9 2 10 8 5 6 11 3
12 10 2 3 6 9 8 4 1 11 7 5
11 8 10 5 6 12 7 4 9 1 3 2
9 2 5 6 12 1 7 8 4 3 11 10
9 6 8 4 11 10 3 5 7 2 12 1
1 12 7 4 5 6 3 8 9 11 10 2
1 8 10 6 5 9 12 2 3 4 11 7
1 2 3 4 5 12 7 8 9 10 11 6
7 2 11 10 5 6 8 1 9 4 3 12
1 2 3 10 5 6 7 8 9 4 11 12
1 12 9 4 2 6 5 7 3 10 11 8
8 2 3 4 5 1 7 10 9 6 11 12
4 3 7 11 10 1 12 5 9 8 2 6
1 10 9 2 12 6 5 4 3 11 8 7
3 12 2 4 1 8 7 6 11 10 9 5
7 2 11 3 1 9 5 8 12 4 6 10
1 3 8 12 5 11 2 9 10 7 6 4
2 1 3 4 9 6 11 7 5 10 8 12
12 9 10 1 11 7 6 5 4 3 8 2
1 2 3 4 5 6 7 8 9 10 11 12
1 2 3 4 5 6 12 8 9 10 11 7
1 2 8 9 11 6 3 10 5 7 4 12
1 3 11 4 5 9 7 2 6 10 8 12
12 10 11 4 5 3 1 9 2 8 6 7

11
yzTlsZZN-65765107
mFCIzfF8-60508688
WlCxUfKd-66866866
JzHcSQ7Y-54979249
PIZYth0f-00498690
Z3AKSsUJ-48521854
VIdo5piw-30601123
N04aGtil-05059966
SJw2JFT6-05193340
NKkA4lVg-86269215
nJMw_ESc-45081705
5 10 6 11 7 4 1 2 8 3 9
2 3 5 9 11 10 1 6 7 4 8
2 1 11 4 9 7 8 6 3 5 10
6 5 3 4 8 7 1 2 9 10 11
5 2 10 3 1 8 7 6 9 4 11
4 1 7 6 10 9 3 8 5 2 11
2 10 9 4 5 6 7 8 3 1 11
7 9 8 3 10 5 1 4 6 2 11
1 2 3 4 5 6 7 10 9 8 11
7 10 9 3 11 4 6 2 8 5 1
5 3 2 8 10 7 1 6 9 11 4
9 4 3 8 2 7 1 11 6 10 5
3 11 2 4 5 7 9 8 6 1 10
1 2 3 4 11 6 7 8 9 10 5
7 4 3 6 5 11 10 8 9 1 2

6
mIdSKFtJ-62272325
0vORCuvB-24288426
L9DZuFvL-75086522
RfFThxa2-19313437
wJomxehe-61176775
VmTedJ_q-61578943
2 3 1 6 4 5
1 3 2 5 4 6
2 5 3 6 4 1
1 5 3 4 2 6
2 3 4 5 1 6
5 2 3 6 1 4
4 5 3 1 6 2
3 6 5 1 4 2
3 2 6 1 5 4
1 2 4 5 6 3
5 2 3 1 4 6
1 2 3 4 5 6
2 6 1 5 3 4
1 2 3 4 5 6
4 3 5 6 2 1
1 5 4 3 6 2
5 1 3 4 2 6
5 6 1 4 2 3
2 5 3 4 1 6
2 6 1 3 5 4
3 2 6 1 4 5
4 1 3 2 5 6
2 4 6 1 3 5
4 6 1 3 5 2
2 6 4 1 3 5
5 4 3 1 2 6
5 4 1 2 3 6
4 1 6 5 2 3

6
I3AKkcQy-05750304
oZziFJZy-09430576
E5dD2P4v-25708405
2Tid_0uf-96344572
XydHwhpQ-11471868
ITueP_19-32966299
6 4 5 2 3 1
3 5 4 1 6 2
5 2 4 6 3 1
6 1 2 5 3 4

1
g8hkp6FZ-66967382
1
1
1

13
JOfSo10a-33276210
T6IxTK1N-20494639
41CufUA1-83554456
kcDA0J3G-04686389
YFXVa8BW-57644836
IXhfAYhy-07953952
YY8hNT51-73465719
tc5chQ2c-14038454
pVvsWa4j-98623381
rfh2O53s-33098443
7zLCXJWF-87453000
aWQ2BUGh-10093642
kMEzBlZh-19800043
12 2 10 11 8 6 3 5 9 1 7 4 13
13 8 12 5 4 6 7 10 1 2 3 9 11
1 6 13 2 7 3 12 11 9 10 8 5 4
1 8 3 7 10 6 9 12 5 13 11 2 4
2 3 9 5 7 8 1 12 13 4 6 10 11
12 3 7 5 2 6 4 10 13 11 1 9 8
8 9 3 4 12 2 5 1 6 10 11 7 13
12 13 3 1 5 7 6 8 11 10 9 4 2
6 1 4 7 13 3 2 12 8 10 11 9 5
1 2 3 4 5 6 7 8 9 10 13 12 11
2 9 8 3 7 5 1 13 11 6 4 12 10
2 13 11 4 8 5 7 12 9 3 10 6 1
5 10 3 7 9 6 12 11 2 13 1 4 8
11 2 4 1 9 3 13 7 5 12 8 10 6
3 9 4 12 5 7 6 11 10 13 8 2 1
9 10 5 4 8 6 3 13 11 2 1 12 7
1 2 3 4 5 6 7 8 9 10 11 12 13
13 6 3 7 10 2 4 8 11 1 9 12 5
1 9 3 4 5 6 7 8 2 10 11 12 13
11 12 1 8 6 5 9 10 7 4 2 13 3
1 2 3 4 5 6 9 13 7 10 11 12 8
11 12 4 10 8 6 7 5 2 13 9 1 3
1 8 3 4 2 6 7 5 9 10 11 12 13
1 5 11 4 8 6 13 3 10 9 7 12 2
1 2 7 9 5 6 8 10 13 4 11 12 3
8 12 6 4 7 3 9 5 1 13 10 2 11
1 2 3 4 5 6 7 11 9 12 8 10 13
1 2 3 4 5 6 7 8 9 10 11 12 13
1 8 3 4 5 6 7 2 9 10 11 12 13
11 2 13 12 6 7 1 4 8 10 3 9 5
2 10 1 5 11 4 6 12 9 7 13 3 8
9 2 11 4 7 12 10 8 3 6 13 5 1
9 10 3 6 2 4 7 1 8 5 11 12 13
6 2 3 12 10 7 4 5 9 1 8 13 11
3 11 5 4 2 6 1 8 10 9 12 7 13
12 7 1 11 5 6 13 8 9 2 3 10 4
2 5 3 4 8 1 7 6 9 13 11 12 10
5 11 3 4 1 2 9 8 7 10 6 12 13
9 11 4 1 6 5 13 12 3 8 10 7 2
1 13 6 4 5 3 7 8 2 11 10 12 9
1 2 3 4 5 6 7 8 9 10 11 12 13
1 2 3 4 5 6 7 8 9 10 11 12 13
2 4 3 5 12 13 8 6 9 7 1 11 10
9 2 3 13 5 11 12 1 8 10 6 7 4
4 7 10 2 9 8 6 3 1 12 5 11 13
13 3 2 10 8 4 7 1 9 5 11 6 12
1 2 3 4 5 6 7 8 9 10 11 12 13
6 10 7 11 5 3 1 4 8 2 12 13 9

13
WPMP_Wiz-17646716
rDp_e6el-54085861
wX2yNYQO-62709090
dEvkKIh1-71393672
xOfxvSxq-95865630
ZJjedTa_-73385849
gwV1ZsZb-83422001
xAkvODkV-56507400
o5ZhJzhg-28936948
n3kvnnUu-43733186
4VtuNMee-05215673
GK68QDU7-12832986
rWeOCDZT-16191023
1 2 4 12 13 6 7 10 11 8 9 3 5
13 6 1 2 11 8 5 10 9 7 12 4 3
3 13 1 10 5 7 9 12 4 6 11 8 2
1 2 3 4 6 5 7 8 13 10 11 12 9
7 2 3 4 5 12 9 6 1 10 11 8 13
10 9 12 11 3 6 5 13 2 8 7 4 1
1 2 3 7 11 9 4 8 6 10 5 12 13
1 8 9 5 13 6 12 11 2 3 10 4 7
7 2 5 10 9 8 1 12 6 13 11 3 4
6 2 12 4 1 8 7 3 9 10 5 13 11
1 13 6 4 3 8 7 5 9 10 11 12 2
1 2 3 4 5 6 7 8 9 10 11 12 13
11 7 2 4 5 6 12 10 9 8 1 3 13
8 10 4 12 13 1 7 6 9 5 11 2 3
12 4 3 2 5 6 7 9 8 1 11 10 13
8 7 6 4 1 2 12 13 9 11 3 5 10
10 5 7 2 3 4 9 8 1 12 6 11 13
6 2 9 1 11 3 7 12 10 5 13 4 8
1 7 3 4 5 6 2 8 9 10 11 12 13

7
yTzu1Vm_-53464816
gXgTI2Bc-10958880
m4WfC6lm-08940685
jfFLQvBq-63369992
R2UodwPT-24068341
rpzOeYuX-63323777
6gAA8Amj-09065161
4 1 5 3 7 2 6
3 2 1 6 5 4 7
1 4 5 7 6 2 3
4 1 3 5 6 7 2
4 6 2 7 5 3 1
2 1 3 4 5 6 7
1 2 3 7 6 4 5
1 3 4 2 5 6 7
5 1 3 6 2 4 7
1 2 4 6 5 7 3
3 2 6 4 5 1 7
1 4 3 7 5 6 2
2 1 3 4 5 6 7
1 7 2 3 5 6 4
4 2 6 1 5 7 3
6 2 4 7 3 5 1
4 2 5 7 1 3 6
2 1 3 4 5 6 7
2 6 3 4 5 1 7
1 7 5 3 4 6 2
5 3 6 2 7 4 1
1 2 3 4 5 6 7
6 2 7 4 5 3 1
1 6 4 3 7 5 2
1 2 3 7 5 6 4
1 2 3 4 5 6 7
3 2 1 6 5 4 7
3 1 2 4 5 6 7
4 2 7 6 1 5 3
1 7 4 6 2 5 3
1 2 3 4 5 6 7
1 7 2 4 5 6 3
1 3 6 7 5 2 4
1 2 3 4 5 6 7

3
ovzOpicI-91374566
cL_osS4e-07245227
mbmEdYwV-33573993
1 3 2
2 3 1
1 3 2
3 2 1
3 2 1
1 2 3
3 2 1
1 2 3
1 3 2
3 1 2
2 1 3
1 3 2
2 1 3
1 3 2
2 3 1
2 1 3
1 2 3
3 2 1
2 3 1
3 2 1
1 2 3
3 2 1
1 3 2
2 3 1
1 2 3
1 2 3
2 1 3
1 3 2
3 2 1
3 2 1
2 3 1
2 3 1
1 3 2
3 1 2
2 3 1
3 2 1
3 2 1
1 3 2

6
KixpBsTK-67420923
uthtpEZW-82935009
nuFMqPB_-64962806
n874jecL-67686969
RdFXAS2i-78675701
aic0LLXr-99214184
5 6 1 2 3 4
5 1 3 4 6 2
6 2 5 1 4 3
3 5 6 2 4 1
5 6 2 4 1 3
2 1 3 5 4 6
3 6 1 4 5 2
3 5 6 4 2 1
2 1 5 3 4 6
1 2 5 4 6 3
6 4 5 2 3 1
4 6 3 1 5 2
3 4 1 2 5 6
4 5 3 1 2 6
5 4 2 3 6 1

6
CHAMbiGt-78335315
JEwhI_Ln-19247253
ZIDZu1TL-50650796
VQd6v50T-38574885
xpe6HJ7o-16125728
UqCDIBvm-70744436
3 2 1 4 6 5
1 4 3 5 6 2
1 5 6 3 2 4
5 2 3 4 6 1
6 3 5 1 4 2
1 2 3 4 5 6
1 5 3 2 4 6
6 2 5 4 3 1
1 2 4 6 5 3
5 6 2 1 4 3
6 1 4 5 3 2
5 4 1 3 2 6
6 1 2 4 3 5
1 4 5 2 3 6
3 5 2 1 6 4
6 3 1 2 5 4
5 3 2 1 4 6
2 5 6 4 1 3
4 5 6 3 1 2
5 4 3 1 2 6
1 6 2 3 5 4
1 2 3 4 5 6
2 4 3 1 5 6
1 3 2 4 5 6
1 6 3 4 2 5
1 2 3 4 5 6
1 2 3 4 5 6
6 1 4 5 2 3
2 1 3 4 5 6
2 4 1 3 6 5
3 5 2 6 4 1
5 6 2 4 1 3
4 5 6 2 3 1
5 1 3 2 4 6
6 1 3 4 2 5
4 3 2 1 5 6
5 4 2 1 6 3
3 6 2 1 5 4
4 1 6 3 2 5
3 4 1 6 5 2
3 2 4 1 6 5
3 4 5 1 2 6
2 1 6 4 5 3
1 2 4 6 5 3
2 6 1 4 3 5
2 5 3 4 1 6
3 2 4 1 6 5

7
shXqtfCh-63392759
mnihN_Ul-27643743
YIxI2YZw-22858246
Xka12Zn4-41573564
LVzhK3fc-89576422
Oc5yoeSK-43137371
WTqJbO28-45910388
1 3 5 6 4 7 2
1 5 7 6 2 4 3
4 3 6 1 7 2 5
6 2 3 1 4 7 5
1 5 6 3 2 7 4
1 7 2 4 3 6 5
3 5 1 4 2 6 7
6 7 4 5 3 1 2
7 2 3 4 5 1 6
2 4 3 6 1 7 5
5 2 6 7 1 4 3
1 2 5 4 3 7 6
3 4 5 1 7 6 2
4 6 7 1 5 3 2
2 3 6 4 1 7 5
3 1 6 5 2 7 4
7 2 5 1 3 4 6
1 2 7 4 5 3 6
2 7 5 1 3 4 6
7 4 3 2 6 1 5
7 4 6 2 3 5 1
3 4 5 2 6 1 7
3 1 2 4 6 5 7
1 3 7 4 5 6 2
5 1 4 3 6 2 7
1 3 2 4 5 6 7
2 3 5 7 4 1 6
1 2 3 4 5 6 7
1 2 3 6 5 7 4
7 6 3 2 4 1 5
5 2 7 4 6 1 3
6 5 7 3 1 4 2
3 2 7 4 5 6 1
3 5 2 4 7 6 1
7 3 2 5 1 6 4
1 2 3 4 5 6 7

14
EpCxinZ4-79453095
D2XXgBBz-53096753
GyoMcVaG-41828323
GrxWPMxp-74350973
OTJrU91o-30011699
zqJq8xew-02757582
iZkLoH2q-57414737
XvmUowRv-07116033
zvuHIJPX-55351773
X9JISZIK-06474476
neuDdvnW-04700649
CCp1N2OX-69112538
uXYZqsMi-73821938
CuB450WB-51112381
9 2 3 4 5 6 7 1 8 14 11 12 13 10
1 2 3 4 5 6 7 8 9 10 11 12 13 14
1 2 3 4 5 6 7 8 9 10 11 12 13 14
11 10 3 5 12 6 13 1 9 4 7 2 8 14
10 6 13 12 11 2 5 8 3 7 1 4 9 14
1 2 3 4 5 6 7 8 9 10 11 12 13 14
3 2 6 4 5 1 12 10 9 7 11 8 13 14
11 9 3 4 8 7 13 1 2 14 5 12 6 10
1 2 3 4 5 6 7 8 9 10 11 12 13 14
12 1 13 11 14 4 8 3 9 2 10 5 6 7
1 2 3 4 5 11 7 8 9 10 6 12 13 14
1 12 3 4 5 6 7 8 9 10 11 2 13 14
2 3 6 13 10 5 14 1 7 11 8 12 9 4
12 2 11 5 4 10 13 3 14 8 7 9 6 1
1 5 8 10 13 12 14 11 6 4 7 9 3 2
14 12 3 2 1 4 6 7 11 8 5 10 13 9
6 2 1 9 4 12 7 8 11 10 5 3 13 14

14
LMynBUYa-17520836
1VpYxsCt-28141069
QH1is4et-37969107
qemK2I4X-92893554
atFl4cky-40906086
KXJKFe4c-85289969
8dvRhe7q-16084839
3dvok2qU-19291007
J_Ac0j9b-64313450
HaDG011n-00604069
4iOBDkfI-54290017
9gMk4gyw-43005359
N0GUcp9H-66972935
p2RAKXBG-32395044
14 11 3 13 6 7 12 10 4 9 1 2 8 5
1 5 2 11 4 13 12 7 6 10 14 8 9 3
4 2 6 1 5 3 7 8 13 10 11 12 14 9
1 2 12 7 5 6 8 4 10 9 11 3 13 14
3 2 11 10 5 1 4 8 9 7 6 14 13 12

9
bKOmIXtY-07022537
lPNqNOIg-08455336
i7M7CWGu-75199610
sB9Krr9z-55487474
5_kD5549-69882988
iZSPZvP1-57126807
8sHx5Sbr-62633045
gIslH3Sp-12502307
jcE3rYyv-59752612
3 6 8 2 4 1 7 5 9
4 2 5 1 3 7 6 9 8

16
90Z5JoWc-28815207
PILywWUM-79093050
gpDgOLG1-27390351
BrOz5B_c-55532427
QVKdV9_E-53711196
hdIO3Psp-50336729
mKeXQsEd-87124493
SLj_6xXS-73307738
wlUpBA2J-29248435
L2oCY_IA-84287829
W8DkwfFI-64602906
71Mvw3BP-86430696
cRLYtlM9-69971938
qsKAqTjr-08761955
MkL2DIv3-52957125
znEXJa7X-39377253
1 8 13 3 11 2 16 7 9 14 4 12 10 15 6 5
16 14 1 10 7 4 13 8 6 9 11 12 3 5 2 15
9 1 4 3 12 16 6 13 5 10 2 7 11 15 8 14
8 9 3 12 5 11 7 4 1 14 2 10 16 6 13 15
14 8 13 3 16 12 6 5 11 10 4 9 7 15 1 2
1 6 14 11 16 8 15 13 2 10 4 12 7 9 5 3
14 8 3 1 5 16 7 13 9 15 10 4 11 12 6 2
9 2 12 1 11 6 7 10 4 8 13 3 16 14 15 5
1 2 3 4 5 6 7 8 9 10 11 12 13 14 15 16
7 2 4 11 14 16 8 3 12 6 1 13 5 15 10 9
7 14 8 4 1 6 5 13 9 11 12 2 16 10 15 3
15 3 10 11 6 4 1 5 16 13 8 14 12 7 2 9
1 9 3 2 5 6 7 8 4 10 11 12 13 14 15 16
11 4 6 2 5 16 14 15 9 7 13 12 8 10 3 1
2 12 3 4 5 6 7 13 9 1 8 10 11 14 15 16
14 10 5 3 15 8 7 11 2 1 12 9 13 6 4 16
2 16 11 4 9 1 7 14 5 13 3 12 8 15 10 6
2 1 3 6 5 4 7 8 9 10 11 16 13 14 15 12
11 2 3 4 14 6 7 8 1 15 9 12 13 16 10 5
7 16 3 15 1 14 12 4 9 10 11 6 2 13 8 5
3 10 13 16 15 14 7 4 9 6 12 1 2 8 11 5
1 2 3 4 5 16 7 8 12 10 11 9 13 14 15 6
1 2 3 4 5 6 7 8 9 10 11 12 13 14 15 16
9 2 13 4 8 10 15 7 6 5 11 1 14 12 16 3
10 3 2 16 9 5 1 8 14 13 11 4 12 6 15 7
14 15 8 4 3 6 7 1 9 5 16 10 13 12 2 11
11 7 14 1 6 10 4 3 12 5 9 8 13 2 15 16

9
6hfZavYj-53808138
RNQQ_uUF-31845713
HSXeewLJ-83420110
yrFmSpRp-95734302
rW8sMpIv-12763216
ueWXWkkO-22821816
vxXG8zG8-79873174
mu2Xli_4-68303108
uTND3P5n-81318242
2 1 9 8 5 4 3 6 7
7 3 1 6 2 9 5 8 4
9 7 8 5 3 4 6 1 2
8 2 3 6 5 7 4 9 1
1 2 3 4 5 6 7 8 9
1 6 3 4 2 5 7 8 9
2 9 5 4 8 3 7 1 6
1 2 3 4 5 6 7 8 9
9 1 7 4 6 5 3 8 2
1 2 3 4 5 6 7 8 9
1 2 8 4 5 6 7 3 9
3 2 4 8 5 9 1 6 7
4 7 6 2 5 3 8 1 9
2 4 8 5 7 1 9 6 3
7 2 3 6 5 4 1 8 9
3 4 6 1 5 2 7 9 8
7 6 8 3 5 2 1 4 9
7 5 4 6 2 1 3 8 9
1 4 5 2 3 6 7 8 9
5 9 7 1 3 2 6 8 4
6 5 9 7 8 3 1 4 2
5 8 9 4 7 2 6 1 3

13
6Ay2WXvK-85866734
LDUQCUQx-45958647
Grd6Rg9i-75015063
YyICrV2B-43577477
vHoQIzfG-66242316
60K6mmci-34199731
Nj6YhTFD-84687874
ueY6w5w6-76360417
4zXDyQSQ-76593087
VtPj2HUr-65745817
_UoMKltG-11668671
RmNVofGz-55636468
rkkz9bgA-71876470
1 7 3 2 10 11 8 12 4 5 6 9 13
1 2 3 4 5 6 7 8 9 10 11 12 13
3 12 1 11 6 2 9 7 5 10 8 13 4
9 12 8 3 4 7 2 5 13 10 11 6 1
1 2 3 5 4 6 7 8 9 10 11 12 13
1 2 13 4 5 6 7 8 9 10 11 12 3
8 5 4 7 2 1 12 6 9 11 10 13 3
1 3 13 4 10 6 7 8 9 5 11 12 2
10 13 3 6 2 4 5 8 9 1 11 12 7
7 10 3 12 5 2 6 13 11 4 9 8 1
7 8 3 10 5 6 9 2 4 1 11 13 12
1 2 3 4 9 8 7 6 5 12 13 10 11
9 7 13 10 1 3 4 2 11 6 8 12 5
2 12 9 8 6 4 3 7 1 5 10 11 13
12 10 8 1 7 4 5 11 9 13 6 3 2
1 2 3 4 5 6 7 8 9 10 11 12 13
4 9 5 8 7 10 2 1 13 6 3 12 11
3 2 7 1 10 4 12 6 9 5 11 8 13
7 11 5 4 10 13 2 1 9 12 6 3 8
1 2 3 9 5 6 4 8 7 10 11 12 13
7 2 13 1 3 6 8 9 12 10 11 4 5
1 2 3 4 6 5 7 9 8 10 11 12 13
1 11 5 2 8 3 6 12 10 9 13 4 7
1 11 13 4 5 3 10 8 9 6 2 12 7
1 2 12 13 9 3 7 8 10 5 11 6 4
9 1 7 6 12 13 3 4 2 8 11 5 10
8 9 4 2 7 13 1 5 10 6 11 12 3
4 2 12 9 3 7 8 6 5 11 1 13 10
12 3 7 6 4 1 9 8 13 5 11 10 2
6 7 3 4 5 8 12 11 9 10 2 1 13
1 3 7 4 2 13 5 8 12 10 6 11 9
1 7 3 10 13 6 4 8 9 2 11 5 12
8 2 7 4 13 12 6 3 9 10 1 11 5
1 2 10 4 5 12 13 8 7 9 11 6 3
13 3 2 5 11 4 8 12 9 7 6 10 1
1 2 3 4 5 6 7 8 9 10 11 12 13
1 6 5 8 12 2 11 9 10 13 4 7 3
1 2 3 4 5 6 7 8 9 10 11 12 13
1 9 10 7 5 3 4 2 11 8 13 12 6
4 2 11 1 5 6 7 8 10 9 3 12 13
2 7 5 8 13 9 12 4 6 10 1 3 11
2 8 3 1 5 6 7 10 9 4 11 13 12

2
uXOok48Y-96651729
818BZG52-37325901
1 2
2 1
1 2
1 2
1 2
2 1
2 1
1 2

15
cDGErDYf-97769420
3puSBM_T-60865270
MZm2IJpG-83456897
S5j1MASC-98630072
sWcMYoSm-94021091
Eif7lOLv-01140562
LlH94WFu-97208904
Jh6nXceq-87918057
EBTQw0QG-52135564
V2ZiUyKq-43072859
EaTUXBWn-43316390
tVmZquF_-05104206
ULsaMrTu-62287628
dQHFdlHh-74572416
xvm4diEa-79933925
9 12 7 13 4 6 5 14 1 10 3 11 2 15 8
1 9 3 11 5 15 4 10 8 7 2 12 13 6 14
1 2 5 9 3 6 7 11 4 10 8 12 13 14 15
1 2 14 4 15 6 5 8 9 10 11 12 13 3 7
1 2 3 8 13 14 7 10 9 6 11 15 5 4 12
1 2 5 15 12 13 7 8 3 6 4 11 9 14 10
1 2 14 4 6 10 7 8 9 12 5 11 13 3 15
1 2 9 4 5 6 13 7 3 10 11 12 14 8 15

3
0jDWHhAO-81794379
ljSzB4Gc-38360293
8TTWhYr4-64903919
2 1 3
3 1 2
2 3 1
1 3 2
2 3 1
1 3 2
1 2 3
3 2 1
1 2 3
2 1 3
1 3 2
2 3 1
1 2 3
3 1 2
1 2 3
2 3 1
2 3 1
1 2 3
1 3 2

8
ClDowE3J-19660210
hw4Uzt9P-40154916
jFV57W_K-38455566
1EbL5tyt-97755153
ipJZc_UC-48970012
5SO4vFi2-89097932
rw5Q9aHw-98503056
qqFs3zbt-77741120
1 2 3 7 5 6 4 8
6 5 4 1 2 8 7 3
1 7 4 3 5 6 2 8
3 7 4 6 5 8 2 1
4 2 3 6 5 7 1 8
1 4 3 7 5 6 2 8
2 1 4 7 8 6 5 3
3 2 5 8 6 4 7 1
1 2 7 4 3 6 5 8
2 5 3 4 1 7 6 8
1 6 4 5 8 2 7 3
4 6 3 5 2 7 1 8
4 1 7 8 2 6 5 3
2 1 5 8 3 6 7 4
7 2 6 1 8 3 5 4
4 3 6 1 5 2 8 7
7 8 4 3 6 2 1 5
7 6 4 5 1 8 2 3
8 3 7 4 5 2 6 1
7 1 6 4 3 5 2 8
1 2 3 4 5 7 6 8
7 2 3 4 5 1 8 6
7 5 4 3 1 6 2 8
5 1 8 2 4 3 7 6
3 6 1 4 8 7 2 5
3 2 4 6 1 7 8 5
6 2 3 4 5 1 7 8
2 8 4 1 5 6 7 3
8 2 4 3 1 6 7 5
8 1 4 7 3 2 5 6
1 4 7 5 6 3 8 2
7 5 3 2 6 4 1 8

5
D5RwRhQG-13797436
1Ln1s9_2-70633826
xM4Rz1UZ-86951713
g3B9dYad-22901563
Q_hwKLWX-16896926
3 4 1 2 5
5 3 4 2 1
2 3 1 5 4
5 1 3 4 2
4 5 3 2 1
1 4 3 5 2
5 3 2 1 4
1 5 3 4 2
5 3 2 1 4
1 2 3 4 5
5 2 3 1 4
1 4 3 5 2
5 3 2 1 4
1 3 2 4 5
4 3 5 2 1
1 2 3 4 5
3 4 2 5 1
1 5 3 2 4
1 2 3 5 4
2 1 4 3 5
3 4 5 1 2
4 5 3 2 1
1 5 2 3 4
1 4 3 2 5
4 3 1 5 2
3 5 1 2 4
2 5 3 4 1
1 3 5 2 4
1 3 2 5 4
5 3 1 4 2
4 3 2 5 1
5 2 4 1 3
3 5 2 1 4
1 5 4 3 2
1 2 5 3 4
1 2 3 4 5
1 4 2 5 3

1
wpkGGZw4-35010410
1
1
1
1
1
1
1
1
1
1
1
1
1
1
1
1
1

1
RWASYEZS-98770580
1
1
1
1
1
1
1
1
1
1
1
1
1
1
1
1
1
1
1
1
1
1
1
1
1
1
1
1
1
1
1
1
1
1
1
1
1

16
XXJVLwcv-24178630
s84K8zbm-33499617
8fTs7a1H-88648923
oh2cv69E-05207766
M5C6LvOr-42996793
og3xKyV3-73752910
vftL75he-79865113
xItI3kw8-77212809
mtY8zKWD-63966874
bM2JDdG5-84974873
2jYJIrxS-66649880
H0mSiqYJ-40885547
iQTo4miS-48305665
m861oFbv-15404846
bE7VYjIp-15168101
kUS6Eg4a-41106084
1 8 3 10 15 6 11 4 14 9 5 13 12 2 7 16
14 4 6 12 9 2 11 5 10 8 13 16 3 7 15 1
13 2 1 12 11 15 5 8 9 3 7 6 10 14 4 16
12 6 15 8 1 13 3 7 9 11 2 14 10 4 5 16
1 15 3 4 5 6 7 8 9 10 11 12 13 14 2 16
9 2 3 4 5 16 15 8 1 10 11 7 13 12 14 6
4 14 3 1 2 13 7 10 9 16 12 11 5 8 15 6
1 2 3 4 5 6 7 8 9 10 11 12 13 14 15 16
14 6 5 4 16 2 7 8 9 10 11 12 13 3 15 1
1 6 9 14 10 13 7 2 8 4 12 11 5 3 15 16
15 8 7 4 12 10 11 6 1 9 3 2 16 14 13 5

7
6hHEsk3A-44771233
1lM7TzE7-36609286
8YpDIz4h-97453751
U1JzSUwH-98884024
TaTCJ_d9-96171659
fuoRPfoy-42677039
nd7EA_LG-01604789
3 4 1 2 5 6 7
1 3 2 7 4 5 6
2 5 1 7 4 6 3
7 2 1 6 4 5 3
3 1 2 4 7 5 6
5 3 2 7 6 1 4
7 2 3 6 5 1 4
1 4 7 2 5 6 3
1 2 3 7 5 6 4
5 1 3 6 4 2 7
7 5 3 6 1 4 2
1 6 3 4 5 2 7
6 1 5 7 2 3 4
2 1 7 3 5 4 6
5 1 3 4 2 7 6
1 7 3 4 5 6 2
7 6 4 3 2 1 5
3 1 7 4 2 5 6
5 1 6 4 3 2 7
6 2 7 1 5 3 4
6 7 5 2 1 4 3
1 3 5 6 7 2 4
5 1 3 4 2 7 6
1 2 4 3 5 7 6
1 2 3 4 5 6 7
3 4 5 1 7 6 2
7 4 3 5 1 2 6
1 5 2 3 7 6 4
7 5 3 4 2 6 1
4 7 3 5 6 1 2
5 2 1 6 4 3 7
5 2 1 7 4 3 6
1 2 3 4 5 6 7
6 2 3 4 5 1 7
6 4 2 7 1 3 5
2 7 1 6 3 5 4

11
TTlmmbxX-23872067
62_qD1Hq-25752544
sCB9_t2P-14957465
mQ4y5vsg-02976199
DLWiFcdw-33556519
JmJgRJJ_-13129956
7zMznioP-17262292
ArKbjuEa-75565506
P7FNC1Tl-71499255
eB2dj8nd-99150853
KY7fP9pR-84302427
4 6 3 5 11 1 10 7 2 8 9
8 1 3 9 11 2 7 10 6 5 4
1 2 3 4 5 6 9 8 10 7 11
6 1 2 7 11 3 9 10 4 8 5
7 3 9 8 6 1 2 5 4 10 11
8 5 1 10 11 6 7 9 4 3 2
4 5 9 2 8 1 11 6 3 10 7
5 10 3 4 1 6 7 8 9 2 11
11 2 8 4 1 6 9 3 7 5 10
5 4 9 7 8 3 1 6 10 2 11
5 10 1 7 9 4 3 6 11 2 8
2 1 11 4 5 6 7 3 9 10 8
1 2 4 3 5 8 7 9 6 10 11
6 1 2 4 7 8 3 5 9 10 11
4 6 8 7 9 2 3 1 5 10 11
4 3 2 9 7 10 5 1 8 11 6
2 5 6 4 3 7 1 8 10 9 11
4 7 1 6 10 2 11 5 3 8 9
10 2 9 6 8 4 11 7 3 1 5
5 2 7 6 11 9 8 1 3 10 4
9 7 5 3 10 6 2 8 1 4 11
1 2 3 4 5 6 7 8 9 10 11
10 5 7 9 3 6 1 4 8 11 2
3 7 6 1 4 9 11 5 8 10 2
1 2 9 11 5 6 7 8 4 10 3
9 11 3 2 5 10 4 7 8 6 1
1 9 5 8 11 2 6 7 4 10 3
9 1 7 4 8 11 6 5 3 10 2
1 10 3 11 5 6 7 2 9 8 4
7 11 6 4 3 10 2 8 9 5 1
1 8 9 5 4 7 11 3 6 10 2
7 3 1 9 10 6 4 11 2 5 8
1 2 5 4 8 6 7 3 9 11 10
1 2 3 4 5 6 7 8 9 10 11
1 2 5 4 3 6 10 8 9 7 11
10 7 3 5 4 8 9 1 6 2 11
1 8 3 5 2 6 10 9 4 11 7
8 2 3 4 1 6 11 7 9 10 5
9 3 7 4 5 6 8 2 11 1 10
5 11 7 4 1 2 6 3 8 10 9
9 1 11 5 2 6 8 4 3 7 10
9 2 3 6 1 10 7 8 5 4 11
1 11 4 10 5 6 7 3 9 2 8
5 10 4 1 2 6 7 11 9 3 8
9 11 10 5 6 3 8 2 4 1 7
1 2 6 4 9 3 7 8 5 10 11
1 2 7 3 4 8 5 6 10 9 11
1 2 3 4 5 6 9 8 7 10 11

1
7sJ9mqn2-98458739
1
1
1
1
1
1
1
1
1
1
1
1
1
1
1
1

2
ZYqFbWy_-74045943
1dCovbdh-31431115
1 2
2 1
1 2
2 1
1 2
2 1
1 2
2 1
1 2
2 1
2 1
1 2
1 2
2 1
2 1
2 1
2 1
1 2
1 2
2 1
2 1
1 2
2 1
2 1
2 1
1 2
1 2
1 2
2 1
1 2
2 1
1 2
1 2
1 2
1 2
1 2
2 1
2 1
1 2
2 1
1 2
2 1
1 2
2 1
1 2
2 1
1 2
1 2
1 2
1 2

13
trLb2dYz-03158611
6dAErMK8-36085759
rMcOdYun-13419188
4cU7NPzR-91027043
V41Gxq2V-56191807
gPO5ty6e-06843849
7mUCBVPj-72047607
3nYLkNeo-19695145
VHllcIJ4-98414519
I7VnH2lu-28461710
gBAGQMV7-59316101
Mr1nmUyG-67932702
ctqjYiyQ-94655353
1 2 4 8 5 6 7 11 9 12 3 10 13
8 5 1 12 13 2 6 9 4 3 11 10 7
11 3 4 8 1 5 10 9 2 6 7 13 12
1 2 3 4 9 6 7 8 5 10 11 12 13
10 2 3 4 5 6 7 8 13 1 11 12 9
13 7 9 2 1 6 5 3 12 10 11 4 8
6 1 3 11 5 9 7 2 4 10 8 12 13
1 7 13 10 2 6 9 4 5 3 11 12 8
2 7 3 13 11 5 4 10 9 8 6 1 12
2 11 3 4 13 7 8 5 9 1 6 12 10
11 2 3 4 5 9 7 8 6 10 1 12 13
9 12 8 4 13 2 11 1 6 5 7 3 10
3 6 2 10 13 12 7 8 1 11 4 5 9
7 1 12 10 5 6 3 2 9 4 8 11 13
2 4 12 1 13 7 8 3 6 9 5 11 10
5 2 10 1 4 6 8 7 9 3 11 13 12
1 8 3 4 5 6 7 2 9 10 11 12 13
3 2 10 5 11 1 13 12 4 8 9 6 7
1 2 3 4 5 6 7 12 9 13 11 8 10
1 11 3 7 8 4 6 9 5 10 2 12 13
7 8 6 2 9 3 1 11 5 10 4 12 13
5 6 8 3 1 2 7 4 9 10 11 12 13
1 2 3 5 8 4 7 9 6 10 11 12 13
7 9 1 10 11 13 3 4 12 2 8 5 6
5 13 3 8 2 11 1 10 4 6 9 12 7
9 3 8 4 6 7 11 5 13 10 1 12 2
1 3 8 5 4 7 9 2 6 10 13 12 11
5 2 3 11 4 6 7 9 1 10 8 12 13
11 12 3 10 9 5 4 2 8 6 1 7 13
1 2 12 9 6 5 13 8 10 4 11 3 7
9 1 3 6 5 4 7 8 2 10 11 12 13
6 1 13 9 2 10 7 8 4 11 3 12 5
1 2 3 4 5 6 12 8 11 10 9 7 13
5 9 3 8 4 6 7 1 12 10 13 11 2
1 12 6 11 8 10 3 7 2 5 13 9 4
1 2 11 4 5 13 7 10 9 8 12 6 3
13 5 7 3 2 4 9 12 6 10 1 8 11
1 10 3 2 5 6 13 8 9 4 11 12 7
1 2 10 4 9 13 5 8 12 7 6 3 11
1 2 3 11 5 4 7 8 10 12 13 9 6

15
uq0FNFLm-76720054
VYDp3Fe5-13985484
_BQ0v3oL-11686481
N4TPTmWu-36831573
oZRyzGP4-85335592
fCmi83MJ-16748818
qMXLyVFM-52702573
9JrqizYe-44268508
logqwugq-37881987
28BxPtez-44049560
MsWRcdYg-84321220
2E04qL_e-79017159
zwDXLMNd-27794008
fZxVbqGA-72548219
kXz5OMTH-36421735
11 2 6 4 5 15 12 8 7 10 1 3 13 14 9
10 11 12 5 9 6 13 3 2 1 4 15 8 14 7
9 4 3 11 6 13 7 12 1 15 14 2 8 10 5
10 9 3 13 5 1 7 8 11 14 2 12 6 4 15
3 1 6 5 15 4 7 9 8 13 11 2 10 14 12
3 2 1 6 10 7 14 13 8 5 11 12 15 4 9
1 2 7 4 5 9 15 8 3 6 12 10 11 14 13
1 2 3 5 9 6 7 8 14 10 11 12 13 4 15
15 11 13 1 12 14 3 7 4 10 2 6 8 9 5
1 2 13 15 3 5 8 10 9 4 7 12 11 14 6
1 2 3 11 12 6 7 8 4 10 13 5 9 14 15
1 2 3 4 5 6 7 8 9 10 11 12 13 14 15
1 2 8 4 5 6 14 3 9 10 11 12 13 7 15
1 2 3 4 5 6 7 8 9 10 11 12 13 14 15
9 2 15 11 6 3 13 14 12 10 4 8 7 1 5
12 2 3 5 4 11 7 8 9 1 10 13 6 15 14
13 3 5 9 7 6 8 1 4 10 12 11 15 14 2
4 15 3 6 9 7 13 1 12 14 10 5 8 11 2

4
p85swHPH-72129423
6XJmLIQG-16491616
5WpmZ1Zs-94100391
slvChuJa-51375464
1 2 4 3
4 3 2 1
2 3 4 1
1 2 4 3
2 3 4 1
2 1 3 4
4 3 1 2
3 2 1 4
2 3 1 4
4 2 3 1
1 3 4 2
3 2 1 4
4 1 3 2
3 2 1 4
3 1 4 2

7
dZPv5jqO-61522512
f10Jkvkt-37522975
dvbpgPT2-33944444
qEqAyfax-80651343
ibOWpB7z-32953791
K0TAzCLJ-72758644
ySTimi3u-42849712
4 5 6 2 3 7 1
1 2 6 4 5 3 7
7 2 5 3 1 6 4

19
EMfJ6bBI-12997554
MlXFEkyu-14259657
GpzMd8Sv-72928946
R5rsX9rm-38081461
LwpSjJur-31982133
b8PcVoa4-43672481
TbAimNZV-21833284
zRB1DhLL-98700324
xWPUonqZ-12682776
T4pWCuAH-11958555
jV6GPgQn-78780064
AZkK9O6y-78458065
NfIoPDpS-25368057
i2m8JB_n-94878282
CWfDhdjZ-28590598
lxf3NEjo-14568872
Lt82TDJy-93985072
tnGl4hSA-63731413
2Ahikhgq-12087863
12 1 14 4 9 5 7 17 18 10 6 13 2 8 15 11 16 3 19
3 12 16 19 14 18 1 6 9 2 11 15 4 17 7 5 10 8 13
1 8 12 18 9 14 15 3 5 16 11 19 13 6 7 10 17 4 2
2 1 4 3 5 6 7 16 13 10 11 14 9 12 15 8 17 18 19
1 2 5 4 19 16 18 8 15 17 7 12 13 14 9 6 10 11 3
1 16 18 4 5 6 7 11 9 10 3 12 13 2 8 14 17 15 19
8 19 1 3 5 6 7 2 12 10 17 14 15 11 13 16 9 4 18
11 2 3 4 18 16 15 8 9 1 10 12 13 14 7 5 17 6 19
18 2 1 19 9 4 7 15 6 10 11 12 13 14 16 3 17 8 5
1 2 3 4 5 6 9 8 11 10 7 12 13 14 15 16 18 17 19
13 6 16 12 5 1 2 8 11 19 18 7 15 14 4 17 9 3 10
1 17 13 3 4 11 8 6 14 18 10 12 5 15 7 16 9 2 19
1 2 3 4 8 6 13 5 15 9 11 12 19 14 7 16 17 18 10
16 12 3 15 9 5 17 19 13 6 11 1 2 4 14 8 7 18 10
16 8 7 4 9 18 6 2 17 11 3 14 13 12 15 10 5 1 19
2 9 3 14 5 17 4 12 16 10 11 7 18 13 15 19 8 6 1
1 4 3 15 14 6 7 11 9 10 8 12 13 19 16 5 17 18 2

11
iONhgT_l-10797657
4rfIkRNY-66892730
p6AiSdyl-22413559
XYB0QFld-17499241
yTadTwHS-80904135
9_TpWVOB-24587698
pyBiRXPi-83388434
AfQRMLUe-50352337
CxnDF0j0-99450969
J0DpySNT-51324123
IvuXR3jt-24398863
5 3 4 7 6 1 9 11 10 8 2
3 10 1 4 5 6 7 8 9 2 11
7 2 3 1 10 6 4 11 9 5 8
8 10 4 1 9 5 6 7 2 11 3
3 2 1 8 5 10 9 4 7 11 6
10 11 3 5 1 4 7 2 9 8 6
1 5 11 2 7 6 8 9 4 3 10
6 2 3 7 4 1 5 8 10 9 11
1 2 3 4 5 8 7 6 9 10 11
1 2 3 7 5 6 8 11 9 10 4
1 9 3 4 2 6 7 8 11 5 10
9 2 3 5 1 6 7 11 8 10 4
11 6 3 4 2 5 10 8 9 7 1
5 2 1 4 3 9 7 8 6 10 11
4 10 3 11 1 8 7 6 9 2 5
1 9 3 4 7 6 5 8 2 10 11
2 6 8 5 4 1 7 11 9 10 3
11 4 8 5 9 3 10 7 1 2 6
1 8 3 4 10 6 7 5 9 2 11
1 4 8 5 6 10 11 9 2 7 3
4 1 6 11 5 10 3 9 8 2 7
6 2 10 8 11 3 4 7 9 1 5
5 1 3 10 11 6 9 2 8 7 4
11 10 3 1 8 7 2 9 4 5 6
6 8 3 11 2 1 7 5 9 10 4
1 7 5 9 3 10 11 8 4 6 2
1 2 6 4 9 5 3 8 7 10 11
1 2 3 4 5 6 7 8 9 10 11
6 11 1 4 5 10 7 8 2 3 9
10 2 3 9 5 4 11 8 7 1 6
6 7 3 4 5 8 2 1 9 10 11
3 2 5 4 10 11 7 8 9 6 1
9 2 1 7 8 6 4 5 11 3 10
9 4 7 5 3 1 8 11 10 6 2
11 8 2 5 4 10 1 3 9 6 7
7 9 8 2 6 10 4 3 5 1 11
1 2 5 4 3 6 7 8 9 10 11
8 7 6 4 2 11 5 1 9 10 3
2 1 11 7 5 4 6 10 9 8 3
2 5 6 1 4 8 7 3 11 10 9
9 5 3 7 8 4 11 6 1 10 2
2 1 3 5 4 6 8 7 9 11 10
3 9 1 4 5 6 7 8 2 10 11
1 8 3 4 5 2 6 9 7 10 11

18
aPYNN665-28445304
ZImhrjpm-52150660
4XpcEFOs-63729129
KrsjgfAN-43252459
Hep1ltux-03945302
G3VkCtw9-82746750
lmnqPEP6-93498670
fXrWkUq0-19018837
YIBm2YU2-90672897
KrtyIMi0-23138736
17iBULRq-97038410
XLJxcSYu-81615791
h4RhoVo6-99111369
Yc6y0bzw-20150535
qvekS7io-97972764
87bcuaKf-09456843
Hm0IDpAL-40317268
qxA816RY-22174062
9 2 15 4 14 6 17 18 1 10 8 7 13 5 3 16 12 11
15 9 3 4 18 6 7 8 2 10 11 12 13 14 1 16 17 5

14
Z2kvbhwg-14403434
RI8UBY4e-11386149
QfNmV0iH-28745308
Bn6Fc3H4-80877394
i9c00aLM-07818023
psDfT_6M-42341444
qxlWiErW-70593732
4Zqvcls4-86612484
wL1f6RtK-71831753
oGdEdRQW-97370137
cITZKTUs-31935112
GxZBrXwu-18265464
lWwijetI-30439917
v2RmJszV-29128818
14 8 13 9 1 2 11 6 4 10 3 5 12 7
2 1 9 4 5 6 7 8 3 10 11 12 13 14
2 9 6 4 5 3 7 11 8 14 10 12 13 1
3 5 7 2 6 12 1 9 8 11 10 4 13 14
8 4 9 6 12 7 3 13 14 10 5 2 1 11
2 5 11 4 1 14 7 8 6 10 3 12 9 13
13 2 7 14 8 6 11 5 12 10 1 9 3 4
11 12 13 9 2 7 5 6 14 4 3 8 1 10
8 2 12 10 1 7 3 11 9 6 5 13 4 14
14 1 8 4 9 13 7 11 6 10 2 12 5 3
3 10 12 13 4 2 9 1 5 14 6 7 8 11
1 2 8 3 5 13 12 7 6 10 14 4 11 9
1 2 13 10 4 9 7 3 6 5 11 8 12 14
1 7 11 4 10 5 12 8 9 6 3 13 2 14
4 1 8 7 2 11 13 3 9 6 10 12 5 14
9 4 2 12 3 6 7 8 14 13 11 10 1 5
7 6 3 4 8 2 1 5 11 10 9 12 13 14
1 2 11 10 14 12 8 5 4 3 9 7 13 6
1 2 3 4 5 6 7 8 9 10 11 12 13 14
7 2 3 9 10 6 8 1 14 4 11 12 13 5
7 2 3 8 1 6 9 5 4 10 11 12 13 14
13 2 3 4 5 6 9 8 7 11 10 12 14 1
1 11 6 4 13 9 10 2 7 8 14 12 5 3
1 2 3 4 8 6 7 5 9 10 11 12 13 14

9
1bDVMwFC-47678286
cgQ23pQP-26548324
kkkmXuBU-69379066
LnoZ7cgF-03247900
x7vn5_qW-86299825
SGGe974j-07821278
YrRw_kPW-18735938
neU1LrH7-85212342
IYhxHzVb-83479491
5 6 1 8 4 2 7 3 9
5 7 3 4 1 9 8 2 6
3 1 9 8 5 4 7 2 6
7 5 8 3 2 6 4 9 1
8 6 3 9 1 4 5 7 2
1 3 6 2 5 4 9 8 7
2 1 6 3 4 8 9 7 5
1 7 6 4 5 2 9 3 8
8 2 9 5 4 6 7 1 3
1 2 3 4 5 6 7 8 9
4 8 9 7 6 2 5 1 3
1 2 3 4 5 6 7 8 9
3 6 4 1 5 8 2 7 9
6 9 7 1 3 2 8 4 5
1 2 9 7 8 6 5 4 3
5 7 9 1 6 3 4 2 8
3 4 6 7 5 1 8 2 9
2 4 9 6 3 1 8 5 7
4 1 9 6 7 2 5 3 8
1 9 4 5 7 2 6 3 8
4 2 1 6 5 3 7 8 9
7 8 3 6 9 5 2 1 4
8 5 1 6 4 3 2 7 9
5 8 4 6 1 7 3 9 2
1 8 3 4 5 6 7 2 9

1
cLWgBKdf-31167545
1
1
1
1
1
1
1
1
1
1
1
1
1
1
1
1
1
1
1
1
1
1
1
1
1
1
1
1
1
1
1
1

18
jx4F53Q8-02345045
iZWMMOQr-96888325
P7Z7tE1O-03769450
yRm4O9H3-28814299
D19pu7Np-54457431
_2cMQDKB-56505049
LzDhZCWp-44024232
vcbYbXz1-57614399
Y2qwK4xG-92309206
CPXIbtwh-04725374
RZ0atRw5-59831113
JJTfD1fx-98038440
C5O92UVb-97577345
whDxUn1A-28572591
GwebNrnI-23237242
9fFH4W3O-55928682
PV4CJFQ2-82568962
MUb1gzgq-51326058
8 1 12 13 2 11 7 18 17 9 3 16 4 14 10 5 6 15
6 7 13 15 5 3 2 8 17 9 10 1 16 14 4 18 11 12
9 3 1 8 5 6 18 4 2 12 11 17 13 15 14 16 7 10
13 2 5 4 3 12 7 10 6 17 8 9 18 14 15 16 1 11
11 2 10 6 1 13 7 8 9 3 18 12 4 17 15 14 16 5
10 4 2 15 5 6 9 11 18 1 8 12 17 14 7 16 13 3
1 2 5 4 11 8 7 10 15 9 6 12 13 18 3 14 17 16
3 2 1 4 5 6 17 8 9 10 11 12 13 7 15 16 14 18
2 17 4 12 14 10 8 11 5 6 1 9 13 18 16 15 7 3
10 2 3 4 5 6 7 9 8 1 11 12 13 14 15 16 17 18
3 17 1 15 13 14 7 8 2 11 5 16 4 12 10 6 9 18
3 2 15 4 5 6 7 18 9 10 11 1 13 12 16 14 17 8

2
BvrletRj-00299869
VG0GBnjd-04627742
1 2
2 1
1 2
2 1
2 1

9
g5DnpLt8-47270635
aieCrU9E-61835478
Y7U8Y3Ry-01947381
4AWkqdxp-46835223
q9IgVjls-94170543
l8I3V691-47968253
CJ5ZP2yt-58876688
lg7Em7tT-21312279
84_9nYOY-50508547
7 1 6 4 8 2 3 5 9
7 2 8 4 5 6 1 3 9
1 2 9 3 5 6 4 8 7
8 2 3 4 5 6 7 1 9
8 2 1 4 5 6 7 3 9
4 3 1 5 7 6 2 8 9
4 5 7 1 9 8 6 2 3
9 3 7 1 2 6 8 4 5
6 7 4 5 9 2 3 8 1
2 4 1 7 3 9 6 5 8
5 2 9 6 1 7 3 8 4
3 6 5 4 7 9 8 1 2
8 5 6 7 9 3 4 1 2

5
hO8i_URz-11489728
uHR9fHWm-01538667
Y7HfLvd7-18608984
tGDEN7KV-83609299
qYg_EYGb-19749064
4 1 3 2 5
1 2 3 5 4
3 2 5 1 4
1 4 5 3 2
4 2 3 5 1
4 2 3 5 1
1 2 3 4 5
5 3 4 2 1
1 2 3 4 5
3 1 4 2 5
1 2 3 4 5
2 1 4 3 5
5 1 2 3 4
5 1 3 2 4
4 2 3 1 5
5 4 2 1 3
3 2 1 4 5
3 4 1 2 5
1 4 5 3 2
1 2 3 4 5
5 4 2 1 3
4 5 3 1 2
1 2 4 5 3
1 2 3 4 5
1 3 5 2 4
1 2 3 5 4
3 4 2 1 5
1 5 4 2 3
2 4 1 5 3
5 1 3 4 2
4 1 5 3 2
2 5 4 3 1
2 5 1 4 3
4 2 5 3 1
4 1 5 2 3
3 5 4 2 1
3 1 2 5 4
4 2 5 1 3

11
dQV9TkwW-34973203
xjGm8ysO-31876588
BkrkGBxj-82219062
OGJKi3Gv-97249776
YUZw7q37-27895515
Sxhh4GLG-29860624
wH_iuGwP-47054434
WPbnz1N7-30492805
vXhmbvXQ-25728182
TABxL7iE-38471596
ir36PWSd-21730511
1 9 3 4 2 6 7 8 5 10 11
11 3 2 4 5 6 9 1 8 10 7
3 7 8 4 11 1 6 5 9 10 2
1 2 3 6 5 4 7 8 9 10 11
4 7 3 11 5 6 1 9 10 2 8
3 9 10 4 5 11 7 1 8 2 6
8 2 10 1 7 6 5 11 3 4 9
1 2 3 4 5 10 7 8 9 6 11
8 11 3 7 6 4 10 5 9 1 2
3 9 6 4 2 8 7 10 5 11 1
9 8 3 4 5 10 2 6 7 1 11
4 7 9 10 8 2 11 3 6 1 5
8 5 1 3 9 6 7 11 2 10 4
9 2 7 4 6 5 10 8 1 11 3
7 2 5 10 4 3 8 9 6 1 11
9 5 10 1 8 7 6 3 2 11 4
11 10 1 4 5 8 9 3 7 2 6
2 1 9 8 10 5 7 11 3 6 4
3 5 1 4 2 7 11 6 9 10 8
1 2 3 5 11 9 6 8 4 10 7
1 7 5 2 3 10 4 8 11 9 6
5 2 8 11 3 6 4 10 9 1 7
2 10 11 4 8 6 5 1 9 3 7
8 2 10 3 4 11 1 6 9 5 7
1 5 8 11 2 6 7 3 9 10 4
11 2 3 4 10 9 1 8 5 6 7
1 3 7 11 9 10 6 4 8 2 5
3 9 4 10 11 8 5 7 2 1 6
6 3 7 8 9 1 2 4 11 5 10

7
gxT6gm2h-95449255
6Y4XZ5X_-10982211
RbbLBLU5-39026103
O6s_M18H-01948477
uZqvsDWu-10017218
IaIXlJIj-06175315
pOzGpRXV-39709283
1 6 7 3 2 5 4
3 2 6 5 4 1 7
1 4 3 6 5 2 7
4 7 3 5 1 2 6
1 6 4 2 5 3 7
2 6 4 5 3 1 7
3 1 2 7 5 4 6
1 7 5 2 6 4 3
7 2 1 5 3 4 6
3 5 2 7 6 1 4
1 7 6 4 5 3 2
1 4 3 2 5 6 7
4 7 2 6 5 3 1
2 4 5 1 7 6 3
4 2 6 5 3 1 7
6 2 3 1 5 4 7
6 2 5 1 3 4 7
1 6 5 7 3 2 4
2 4 6 5 3 7 1
3 6 2 4 5 7 1
1 2 3 4 5 6 7
5 7 6 3 2 1 4
2 6 5 1 7 3 4
6 4 3 1 5 2 7
1 4 5 7 2 3 6
1 5 3 6 4 7 2
4 1 7 6 5 2 3
5 2 7 4 3 6 1
1 3 4 7 6 5 2
2 7 3 4 1 6 5
7 2 5 1 6 3 4
5 2 3 7 1 6 4
2 6 1 3 5 7 4
1 7 3 4 5 6 2
2 5 3 7 6 4 1
4 2 5 7 3 1 6

8
x2yT07Q0-85846611
bkv1mYHW-09065618
uikLBzkG-75935714
tmk8OJLP-53739380
S8SHYV3X-29950540
eAwEqidh-27369765
dNw1EBrh-40581560
Ep8dfApo-17266789
4 5 2 6 3 7 8 1
1 6 5 8 4 2 7 3
6 8 3 4 7 2 5 1
3 4 8 1 6 5 2 7
1 8 6 7 2 5 4 3
1 2 3 8 4 5 7 6
7 8 3 4 5 6 1 2
1 8 3 4 5 7 2 6
1 8 3 4 2 6 7 5
2 4 6 7 5 1 3 8
4 7 6 5 2 1 3 8
1 7 3 4 6 2 5 8
4 3 6 8 1 5 7 2
1 3 5 4 2 6 7 8
4 3 8 2 6 5 7 1
5 3 1 7 2 6 4 8
6 7 3 8 2 5 1 4
2 8 6 3 5 4 7 1
4 2 3 1 5 6 7 8
2 1 3 4 5 7 6 8
3 7 5 6 1 4 2 8
2 6 3 4 8 7 5 1
3 8 7 5 6 2 1 4
1 2 6 4 5 3 7 8
3 5 4 1 8 6 7 2
1 2 3 4 5 6 7 8
1 8 6 5 3 2 7 4
1 2 3 4 5 6 7 8
2 5 7 4 8 3 6 1
1 3 4 5 2 6 8 7
2 1 3 4 5 6 7 8
7 6 1 8 5 3 2 4
2 5 1 7 4 6 3 8
8 2 7 4 5 1 3 6
1 4 3 2 7 6 5 8
1 2 3 6 5 4 7 8
5 6 7 4 3 2 1 8
8 2 3 4 5 1 7 6
1 3 8 5 2 4 7 6
5 1 2 8 4 3 7 6
4 6 5 7 2 3 1 8
1 2 3 4 6 5 7 8
1 3 4 6 2 5 8 7
1 2 3 5 4 6 7 8
8 5 2 6 3 7 4 1
3 6 4 2 8 5 1 7
1 2 8 7 6 5 4 3
1 3 2 5 6 7 4 8
8 7 5 2 4 6 1 3
6 3 7 5 1 4 2 8

9
1yjHHVgo-33722699
e_dkOhDe-00675647
QN1AtEIN-18186449
NNTGFB3S-15934324
R7bn9hCB-55820561
CWJyUsr6-58677283
oDDoWr7H-71630771
4YSb9fGv-93565012
s2Gw7wcz-22268951
3 7 8 4 2 6 5 1 9
7 2 6 5 1 4 3 8 9
5 3 2 8 9 6 7 1 4
1 2 3 4 5 6 7 8 9
7 1 8 2 3 6 4 9 5
1 2 3 6 5 4 7 8 9
6 9 2 7 5 4 8 3 1
1 2 3 4 5 6 7 8 9
9 3 1 8 2 5 4 7 6
8 4 6 2 5 9 3 7 1
6 3 4 9 8 5 1 2 7
3 8 9 5 4 2 6 1 7
1 3 5 4 8 6 7 2 9
4 9 2 5 6 3 7 8 1
8 2 5 1 4 3 9 6 7
2 7 8 3 9 5 1 4 6
6 5 8 1 9 3 7 4 2
7 1 3 9 4 5 2 6 8
1 2 3 6 5 4 7 8 9
1 2 3 6 5 8 7 4 9
6 3 5 2 4 7 1 8 9
1 9 7 4 5 6 3 8 2
6 9 2 1 8 7 4 5 3
6 2 4 5 1 7 8 3 9
1 2 3 4 5 6 7 8 9
3 1 5 7 6 4 8 9 2
2 4 3 6 7 9 1 8 5
4 3 8 1 9 6 2 7 5
6 9 8 4 2 1 3 5 7
7 5 3 6 9 2 8 1 4
6 2 9 5 7 4 3 8 1
9 2 4 8 6 1 3 5 7
1 6 7 4 5 3 9 8 2
6 1 7 5 4 8 2 9 3
4 5 8 2 1 6 7 3 9
4 9 3 7 1 6 2 8 5
1 2 3 4 6 9 7 8 5
5 3 9 4 7 6 2 8 1
7 9 8 4 5 6 3 2 1
7 9 1 5 2 4 3 8 6
1 7 9 3 2 4 5 8 6

4
g9Zvum5F-64822584
aSzjCRho-48819509
COAxHfc4-82752965
KBFJbTkh-74428314
2 3 4 1
3 4 1 2
3 1 2 4
4 1 3 2
1 4 2 3
2 3 4 1
4 2 3 1
1 4 2 3
4 2 3 1
4 3 1 2
1 2 3 4
4 1 3 2
2 1 4 3
4 2 1 3
1 4 2 3
2 1 3 4
4 3 2 1
2 4 1 3
2 1 3 4
3 4 2 1
4 3 1 2
4 3 2 1
1 3 2 4
4 1 2 3
4 1 3 2
1 2 4 3
2 4 1 3
4 2 3 1
1 3 2 4
1 3 4 2
2 1 4 3
4 1 3 2

13
A2bBu1ig-93038334
CnP3YDBc-85079351
UtD7OlY8-44260434
PYpDzV9w-78325291
mx3jeKC3-39057081
uKXU81jg-98938410
WgdQQ1Tc-95076066
4SzG9PRU-13785149
IkhTihNT-27869638
5JlmcXaV-41857088
12Kw79p1-19184172
V1kNQfwz-28389716
D1RcLd37-00054288
9 12 13 1 8 4 2 5 11 10 3 7 6
5 13 1 8 11 9 7 4 2 10 12 3 6
12 7 2 4 6 13 1 3 11 10 9 8 5
1 2 3 6 5 13 7 8 9 10 11 12 4
1 13 8 4 2 11 5 6 9 7 3 12 10
2 8 9 5 3 6 11 7 1 10 12 4 13
12 2 9 4 7 3 5 10 6 8 11 1 13
1 9 3 4 2 11 6 8 10 7 5 12 13
1 4 10 2 9 7 6 8 13 12 3 11 5
1 2 5 3 13 8 10 12 4 9 11 7 6
3 9 4 1 2 6 8 11 5 10 7 12 13
1 2 3 6 5 4 7 8 9 10 11 12 13
9 4 3 11 7 12 1 8 5 2 6 13 10
10 2 3 4 13 1 8 7 9 6 11 12 5
1 2 3 4 5 6 7 8 9 10 11 12 13
4 11 13 3 5 7 12 9 8 10 2 6 1
1 2 3 4 6 7 12 5 9 10 11 8 13
13 7 1 6 5 3 9 2 4 12 11 10 8
5 2 8 11 6 4 3 1 10 9 13 12 7
12 2 3 4 5 6 7 8 9 10 11 1 13
3 2 1 5 9 4 6 8 11 7 12 13 10
13 2 6 7 1 5 11 10 9 4 3 12 8
1 2 8 9 3 12 7 13 4 10 11 5 6
12 2 1 4 9 6 7 8 5 10 11 3 13
1 9 3 4 5 6 7 8 2 10 11 12 13
10 2 3 4 5 6 7 8 9 1 11 12 13
1 2 3 4 5 6 7 8 9 10 11 12 13
1 8 2 4 9 10 6 13 7 12 11 5 3
1 11 3 4 5 6 7 8 9 10 2 12 13
9 5 3 4 2 6 7 8 13 10 11 12 1
1 9 7 4 5 2 3 8 10 6 11 12 13
1 2 9 4 11 6 13 8 3 10 5 12 7
9 2 3 4 13 6 1 7 8 10 11 12 5
1 2 3 4 5 6 7 8 9 10 11 12 13
1 2 3 7 4 6 5 8 13 12 11 10 9
6 2 3 4 10 8 13 7 11 5 1 12 9
1 3 9 4 5 7 6 13 2 12 11 10 8
1 5 10 4 8 7 12 2 6 11 3 9 13
10 2 5 8 7 4 1 6 13 11 9 3 12
1 11 3 2 10 4 7 8 9 13 6 12 5
10 6 9 4 5 1 7 2 12 8 13 3 11
10 4 1 5 8 12 2 9 11 3 7 6 13
12 7 6 4 13 3 2 11 9 10 5 1 8
1 6 5 8 4 2 7 13 9 11 10 3 12
1 2 4 6 11 5 7 8 9 13 3 12 10
1 2 8 6 9 12 11 5 13 7 10 3 4
5 3 8 9 1 12 7 6 4 10 11 2 13
4 2 3 11 9 6 7 8 1 10 12 13 5
1 7 5 4 11 9 13 6 8 3 10 12 2

16
JQSEiUA9-63360280
AgxRRrVQ-79230055
co9mdhWj-67250920
WbAYgsz4-50151874
UYM02UIG-37384812
ymGfZLJ0-36032992
gCSMpLKc-60707609
z3lokwGP-08682789
LAuzXE23-57074762
_5MKqWql-08831186
PkBvCO_f-22590258
GRrOnSV8-71307747
_ZsJEakj-33644288
WK3KARXD-15438542
bDlNrodX-97635170
F049XgR7-80604556
14 10 1 8 7 11 5 2 9 12 6 3 13 15 4 16
1 7 14 4 5 6 15 8 9 10 11 12 13 3 2 16
1 7 13 2 9 6 16 10 5 8 3 12 15 14 11 4
1 2 3 4 10 6 7 8 9 5 11 12 13 14 15 16
13 7 3 15 2 1 10 8 14 6 11 12 5 4 9 16
1 12 8 2 5 6 7 3 13 10 15 16 14 4 11 9
3 12 11 2 7 4 6 8 15 10 14 1 13 16 9 5
10 2 14 4 5 16 7 8 6 1 11 12 13 3 15 9
10 4 15 6 11 2 3 16 14 9 5 12 1 7 13 8
1 8 3 10 15 9 2 11 4 13 5 6 12 14 16 7
16 13 2 5 1 6 7 3 4 12 11 15 10 14 8 9
15 5 6 4 7 1 8 2 9 11 14 16 3 10 13 12
10 4 3 1 15 8 7 9 16 2 6 12 5 14 11 13
10 8 4 1 9 16 12 2 13 15 5 6 14 11 3 7
1 2 3 4 5 6 7 8 9 10 11 12 13 14 15 16
10 2 3 4 5 12 6 8 16 14 13 9 11 7 15 1
3 8 1 6 13 7 4 16 9 2 15 12 5 10 11 14
3 14 1 16 6 4 7 8 12 2 11 15 10 13 5 9
1 2 3 4 5 6 7 8 9 10 11 12 13 14 15 16
9 4 3 12 7 6 8 10 16 1 5 2 13 14 15 11
1 2 3 4 5 6 7 8 9 10 11 12 13 14 15 16
4 10 6 11 3 8 7 15 13 5 2 9 16 14 1 12
7 2 3 4 5 1 6 8 9 10 11 12 13 14 15 16
14 2 9 4 5 1 13 3 10 8 11 12 6 7 15 16
13 16 3 5 7 15 8 10 2 9 11 12 4 6 14 1

14
YLISI_jv-33728390
LiwLNEEn-50545533
hGdYMCLo-90895588
tnA2ZSXm-59171054
sPMcEORe-34248357
LbGfJ4mV-49108256
8HNZhYsG-26984216
jl49yq2J-18941319
nMtxnrAB-29449950
jMH5ndgL-39794830
sqxvJolQ-76241280
gGuHlrBU-37344091
EV0A9n7_-04091758
ljqulOB5-60434991
1 2 10 12 13 9 4 5 3 14 8 11 6 7
1 13 3 4 14 12 7 9 8 10 11 5 2 6
14 5 11 4 1 6 10 9 13 2 3 7 12 8
1 6 3 4 5 2 7 13 11 10 8 12 9 14

10
UDxwCnwa-33916170
rbRD44Yc-06997880
yteAYtvQ-25467800
wCK2HmCO-83257359
mD_GBEIa-94242351
5nKifwVZ-36614470
ygoSnrRd-65593748
7iZc_8_w-43262695
n_KGpoWU-87181522
2XJeTAV2-92447018
1 9 5 8 10 4 2 3 6 7
7 8 6 5 1 2 4 10 9 3
6 9 3 8 5 7 2 4 10 1
1 8 10 5 3 4 7 2 6 9
4 8 2 5 6 10 7 1 3 9
7 10 3 1 5 4 2 8 6 9
8 3 2 4 5 9 7 1 6 10
1 5 8 4 9 7 2 3 6 10
10 9 4 8 5 2 3 7 1 6
2 8 7 5 4 3 1 10 9 6
8 2 1 6 9 7 10 3 4 5
1 2 3 4 5 6 7 8 9 10
6 10 3 4 2 8 7 5 1 9
1 6 9 4 5 2 7 8 10 3
1 2 3 10 5 6 7 8 9 4
1 2 3 4 5 6 7 8 10 9
10 5 6 1 7 8 4 9 3 2
9 2 10 1 3 7 8 5 6 4
9 8 2 10 5 7 6 1 3 4
2 5 7 4 6 9 3 1 8 10
6 1 8 9 2 7 5 10 4 3
5 6 4 1 8 2 9 7 3 10

17
keKSuzW5-18304749
ISppeZN9-46013976
FOz9dwcm-47794906
8Ld9yjH9-79127043
nssIOTyz-93355425
Wyh1doaF-59657773
ThZN6Tv4-89449087
04IgS4pP-45147588
4AN99efg-05226848
wAJRiA6Q-93283214
K9IIPNLp-10128250
lCuAdY__-60608462
KrGJ4evz-67577722
nrolOXsc-65204940
WSPX3IJc-27688653
xLGDEvX3-64746696
zNBJGzSC-29889321
1 2 3 4 5 6 9 8 7 16 11 12 13 14 15 10 17
6 4 2 14 11 10 13 3 9 15 8 12 1 17 5 16 7
1 8 3 16 13 6 7 2 9 10 17 12 5 14 15 4 11
13 10 1 3 5 7 4 17 9 11 6 8 16 2 14 15 12
5 2 12 3 11 1 9 10 4 14 15 17 13 7 16 6 8
9 7 2 17 5 10 12 1 14 16 11 4 13 3 15 6 8
1 2 3 4 5 13 7 8 9 10 14 17 6 15 16 11 12

3
aLC_Q_IF-67013543
Nz_S5Fj_-70698454
ClW66ep9-07792092
2 3 1
2 1 3
2 1 3
2 1 3
1 2 3
3 2 1
3 2 1
1 2 3
1 2 3
2 1 3
3 1 2
2 3 1
3 2 1
2 3 1
1 2 3
2 3 1
1 3 2
2 3 1
3 2 1
2 1 3
3 2 1
1 3 2
1 2 3
2 3 1
1 2 3
3 1 2
2 1 3

17
RorqtDPj-90209867
DO18Jtl4-15421507
lj1ITA6Q-06208341
oDz5wchS-96473594
kYCjOJAc-56537731
nBhNcoC8-08999822
rQR8c82m-93358317
Ltz0F5GG-64478564
3CcUCnKE-59635966
fjHPnrYB-09239267
9lw_e1n9-02859947
Dn9GLuON-72174985
MW5P9Uit-09681072
I3oAt014-51961850
dEKIiEd8-90254865
LZujlFeo-34056340
fyGZxfNs-37407494
1 3 15 12 5 13 2 8 9 10 11 6 4 14 7 16 17
1 2 3 4 14 6 7 9 8 10 11 12 17 5 15 16 13

2
AEPry52u-13047699
btocYsqA-74792711
1 2
2 1
2 1
1 2
1 2
2 1
1 2
1 2
2 1
1 2
1 2
2 1
1 2
1 2
2 1
2 1
1 2

13
DLDqFu57-42455003
jnGFiC77-30604522
0mCZXG19-50667304
YywpmpBp-44265988
tiQ2r8yl-94631697
m_bMR_Ph-89381392
TqurGKQj-10653559
qRGTZ9DD-29346330
otbq47td-34157454
5UZhG7Ob-08681516
f__93Gbp-66156669
cTvNB6fJ-59002663
SXk9yuC0-07253773
5 3 9 8 13 2 6 10 7 12 4 11 1
1 2 3 4 5 9 7 8 6 10 11 12 13
1 2 12 4 10 6 7 8 9 5 11 3 13
2 7 4 3 8 5 12 13 6 10 11 1 9
8 2 12 9 10 5 6 13 7 3 11 4 1
5 11 2 7 8 6 4 13 12 10 1 3 9
13 3 9 5 10 8 2 12 1 7 11 6 4

7
Nq8LljnS-21252858
yZwKun4C-84576226
hGK4LFUd-41346399
S7tjaMPd-38078767
_WKxLvb2-16589856
2mVdVQ6c-41272178
svVv4Q_l-24558868
4 2 7 6 1 3 5
2 4 5 7 6 1 3
1 4 7 2 5 6 3
1 5 3 6 4 2 7
3 1 6 4 5 7 2
4 1 3 5 6 2 7
3 4 2 7 1 5 6
5 2 1 3 7 4 6
7 2 5 4 3 6 1
2 3 6 1 5 4 7
6 2 3 5 4 1 7
4 2 6 7 3 1 5
5 2 1 7 6 4 3
2 7 3 5 4 6 1
2 7 1 5 3 6 4
6 3 4 2 5 1 7
7 5 2 1 3 6 4
3 6 7 2 4 5 1
7 2 3 4 6 5 1
3 2 4 5 1 6 7
6 3 5 4 7 1 2
7 5 3 1 4 6 2
7 4 1 6 3 2 5
4 3 1 5 7 6 2
3 2 4 5 7 1 6
1 2 3 4 5 6 7
1 5 4 6 3 7 2
1 2 3 4 5 7 6
2 1 6 3 7 4 5
1 2 3 4 5 6 7
1 2 3 4 6 5 7
3 2 6 7 5 1 4
2 3 5 6 4 7 1
2 1 3 4 5 6 7
2 6 1 4 7 3 5
3 6 5 2 7 4 1
2 1 6 5 4 3 7
5 6 2 7 4 3 1
1 5 3 7 2 6 4
7 4 2 5 3 6 1
6 2 1 7 3 4 5
2 1 6 4 7 3 5

3
Ba6qRdQ3-85541006
5xn3Ffro-28107496
wS3b9Tmo-82563870
1 3 2
3 1 2
1 2 3
2 1 3
2 3 1
2 1 3
3 2 1
3 1 2
1 2 3
3 2 1
1 3 2
3 1 2
3 2 1
2 3 1
3 1 2
2 1 3

20
BIMLiNlK-96747183
eR4ySU1T-12210710
Tqr4JGWF-44381064
q90JJB1J-58200822
mHoji9sR-18559773
b_q90x0s-62656719
8tOxWyNr-73390873
s95yRCp4-61282349
Lz5CnxMq-43508921
0wCdtrk6-43152851
cv9P6LUH-04825920
ieZ6yMXX-00680397
dGfO5dvk-36131528
WXIsRh28-26752121
SqZ5Jpmi-23452890
StRnmqdv-78886852
K4wXwnJV-45957245
E9DN4G4R-16229923
9vyLhTCe-41232352
CCVo2sWK-82362904
2 1 3 4 20 14 7 8 9 10 16 12 15 19 13 17 11 18 6 5
3 7 10 4 5 17 2 15 9 20 1 12 8 14 19 13 11 18 16 6
1 2 9 11 5 3 7 8 10 6 4 12 13 14 15 16 17 18 20 19
1 9 3 5 4 10 12 8 20 17 11 6 18 14 2 16 13 7 19 15
1 9 18 17 15 4 8 19 2 3 5 20 11 14 13 6 16 10 12 7
5 7 3 2 1 17 18 19 15 10 9 12 13 4 14 16 6 8 11 20
1 6 9 7 8 3 2 15 11 12 10 5 13 14 17 16 18 4 19 20
1 2 3 4 5 6 7 8 9 10 11 12 13 14 15 16 17 18 19 20
7 2 3 4 5 6 1 8 16 10 9 12 13 14 15 11 18 17 19 20
14 3 2 9 5 6 7 8 10 11 13 12 4 20 17 18 15 16 19 1
1 2 11 4 19 6 14 18 20 16 15 12 7 17 13 9 10 8 5 3
17 2 9 13 10 20 15 11 3 12 16 5 4 14 7 8 1 6 19 18
13 2 3 4 5 6 7 8 9 10 11 12 17 14 15 16 1 18 20 19
1 2 11 4 17 6 14 15 16 20 7 12 13 8 3 19 5 18 9 10
14 2 3 16 9 19 1 12 13 6 10 17 20 7 15 5 8 18 4 11
7 13 1 4 14 6 20 8 9 11 19 3 10 17 12 16 18 2 5 15
1 9 19 4 5 6 2 7 17 8 10 12 13 14 20 16 3 18 11 15
1 16 3 4 5 20 10 12 9 7 11 6 13 8 18 2 17 14 19 15
15 7 10 14 8 18 6 9 12 2 11 1 13 19 4 16 20 3 17 5
4 7 3 12 5 6 2 17 9 10 20 1 13 14 15 16 8 18 19 11
1 2 3 10 16 17 14 8 9 7 12 11 4 13 6 5 15 18 19 20
1 18 14 4 5 11 7 3 2 10 6 12 13 9 15 16 8 17 19 20
1 7 18 4 6 2 3 13 9 16 19 12 20 14 10 15 17 5 8 11
1 8 14 6 2 16 11 10 9 17 15 7 5 4 12 19 13 18 3 20
19 18 3 4 5 6 7 8 9 10 11 16 13 14 15 12 17 2 1 20
5 18 3 4 8 19 7 1 14 10 11 6 13 9 15 16 17 2 12 20
19 2 3 6 4 5 17 8 13 10 16 12 9 14 15 18 11 7 1 20
1 17 18 4 7 13 2 15 5 20 11 12 6 3 8 16 14 9 10 19
7 2 3 1 5 6 11 8 20 10 15 12 13 14 4 16 17 18 19 9

7
UB04DEnS-54322018
qHXflIxK-36591936
BjsIjegX-63662975
KfhsYcvg-00001079
Ke4UhAvH-08208786
yHwUpsv8-28928000
5aXEsnWN-39557301
7 3 6 2 1 5 4
6 7 3 2 5 1 4
4 3 2 1 5 6 7
1 6 2 3 7 4 5
6 4 3 7 1 5 2
5 2 4 6 7 3 1
1 2 3 7 5 6 4
5 4 2 3 7 6 1
3 4 1 7 2 5 6
5 4 7 6 2 1 3
1 2 7 5 4 3 6
1 6 2 3 5 7 4
7 3 1 6 2 4 5
5 1 4 7 3 2 6
6 2 3 7 1 5 4
1 4 7 6 2 5 3
5 3 4 7 1 2 6
1 6 5 3 4 7 2

1
EhxyNlJ1-93991672
1
1
1
1
1
1
1
1
1
1
1
1
1
1
1
1
1
1
1
1
1
1
1
1
1
1
1
1
1
1
1
1
1
1
1
1
1
1
1
1
1
1
1
1

11
qvl23bTF-61866925
LPL0fxqr-70230273
5AcTGEni-00507652
ZXI_Loi3-84104889
JcHmrjXg-01003031
lE8F8SyH-32938666
WimWhvcy-64952016
BCG1O29G-36845674
TrAdqqf7-74566371
nKiigOhb-96727652
fIHPAEvz-27441597
11 1 3 10 4 6 7 8 2 5 9
11 1 4 8 3 6 2 9 5 7 10
11 5 8 2 10 1 6 9 7 3 4

15
GLQEw6Mq-28369809
0981sd7g-61755801
oSqBUge0-82312850
PELMyBvM-53027521
uGuiMYK4-23750364
XuDRZC4E-95423845
jM4oxjVa-63132599
25Guaz2d-01613315
6fhjkowR-36993270
EsU4r0yK-00552608
OPxaJHYS-93932925
vElvVnOB-89621956
XWEx9rT2-29394308
QoI2fKHl-05651971
LxqMdSJJ-07772684
10 2 3 9 6 5 7 15 4 14 11 12 13 1 8
4 2 3 13 5 14 10 11 6 8 12 15 1 7 9
1 2 3 4 5 6 7 8 9 10 11 12 13 14 15
1 2 3 4 5 6 7 8 9 10 11 12 13 15 14
10 15 14 13 6 8 9 7 3 4 5 12 1 11 2
15 2 11 10 5 1 7 8 13 12 9 14 4 3 6
8 2 3 14 5 6 7 1 10 4 9 12 13 15 11
11 14 3 10 8 1 4 13 2 6 15 12 7 9 5
11 7 13 4 3 8 9 6 2 1 10 15 5 14 12
2 11 10 3 5 7 6 1 4 9 8 12 13 14 15
13 3 2 9 10 6 4 5 7 1 11 12 14 8 15
1 2 14 4 5 6 7 8 9 10 11 12 13 3 15
2 5 11 4 9 6 7 1 3 10 12 13 8 14 15
15 7 12 14 10 1 8 2 4 11 13 3 9 5 6
7 2 3 4 5 6 8 1 15 13 11 10 12 14 9
11 13 6 14 5 2 7 3 4 9 1 12 8 10 15
14 1 3 2 15 5 7 8 9 4 11 6 10 13 12
1 10 13 4 5 6 14 8 9 15 11 12 3 7 2
10 11 2 5 4 9 13 14 8 15 1 12 6 3 7
2 5 6 1 13 11 12 7 10 14 3 8 4 9 15
13 9 3 4 11 8 7 14 2 5 6 12 1 10 15
1 2 5 7 6 3 4 8 9 11 10 12 13 14 15
8 9 13 12 11 6 15 4 2 7 5 3 1 14 10
1 13 3 4 5 6 7 8 9 10 11 12 2 14 15
7 5 11 6 8 14 1 15 9 10 3 12 13 4 2
1 6 3 4 5 2 7 13 9 10 11 12 8 14 15
2 10 3 4 5 12 11 15 13 1 14 6 7 9 8
8 2 3 1 4 6 11 10 9 5 7 12 13 14 15
5 6 9 1 4 7 3 8 15 10 11 12 13 14 2
1 6 8 12 15 2 3 13 11 14 9 4 5 10 7
15 6 13 5 14 9 11 2 8 7 1 10 4 3 12
1 5 2 11 8 6 13 4 9 3 10 12 7 14 15
15 3 2 10 12 6 5 4 7 9 11 13 14 8 1
1 2 3 4 5 11 15 8 9 10 6 12 13 14 7
6 11 8 4 3 12 9 5 15 10 14 7 2 13 1

15
6jjYBzcx-57793325
6R6Adena-98322746
vEo1uTZ_-70538889
AccI9A3O-21804624
4uOaiQ4M-08445704
IpeyrniI-44012046
t3tjKuV4-54492616
g6J2rKfn-30038004
87WvRTkw-08748545
k7Cq1MkE-21365008
uZLx14ZQ-53190029
DfIJA_lN-30962147
CLcjQxCX-64859765
Z5Bjfrdj-08827939
0K1bXgnN-38417928
9 14 2 13 5 4 6 3 12 7 1 8 11 10 15

4
nXWXjoIH-73042588
DBCpWvWH-46968840
zB35K5HB-96451822
KXtTo6KK-34216954
1 2 4 3
4 1 3 2

5
L3IbsVtV-31584212
lpumCH9P-84297055
BOtmgQiH-62598067
YL7TBGub-37142851
UzUzytMq-57111485
5 1 3 4 2
1 4 3 5 2
5 3 2 1 4
2 3 1 4 5
3 5 2 4 1
3 2 1 5 4
1 5 3 4 2
5 2 4 1 3
5 2 1 4 3
2 5 4 1 3
5 3 1 4 2
1 5 4 3 2
5 3 2 4 1
3 5 1 2 4
3 1 4 5 2
5 2 3 4 1
1 2 4 5 3
1 2 3 5 4
3 4 1 5 2
3 2 1 5 4
2 5 1 3 4
1 2 3 4 5
4 1 3 5 2
3 1 5 4 2
4 3 2 1 5
3 5 2 1 4
3 5 4 2 1

2
sdvcx76B-46722343
VclEsYNG-60823585
2 1
1 2
1 2
2 1
1 2
2 1
2 1
1 2
1 2
2 1
2 1
2 1
1 2
2 1
1 2
2 1
2 1
2 1
2 1
2 1
2 1
2 1
1 2
2 1
2 1
2 1
1 2
1 2
1 2
1 2
2 1
2 1
1 2
2 1
2 1
2 1
2 1
1 2
1 2
1 2

11
YYg7dwBQ-89488885
maK0iSeF-81533503
cTDF4jgx-63623917
rsxDAU1c-10044788
tRmF84c6-32716206
jX8JHTWD-35881885
nPfwkuE4-16354312
3TylY_LW-30505809
sPoPOgkL-91021806
ijKUOs9M-33928826
KJjnLZ_8-69289610
1 2 3 8 5 6 7 4 9 10 11
3 7 9 4 1 2 5 11 8 10 6
3 6 11 4 2 10 8 9 1 5 7
1 3 2 6 5 4 9 8 7 10 11
10 4 3 2 5 6 8 11 9 1 7
3 10 5 4 9 1 2 8 6 7 11
4 10 7 6 9 2 11 8 1 5 3
2 3 4 7 1 9 11 8 6 5 10
2 11 6 9 8 7 5 10 4 1 3
1 2 4 3 8 6 10 5 9 7 11
1 2 9 4 11 8 7 5 3 10 6
3 7 1 10 9 5 8 11 2 6 4
2 9 3 4 5 6 7 8 1 10 11
1 9 8 5 3 11 4 6 2 7 10
4 7 9 6 11 3 2 5 1 8 10
1 2 10 3 5 6 7 4 9 8 11
4 8 3 10 9 6 11 5 1 7 2
2 4 5 9 1 10 6 11 3 7 8
1 9 8 4 5 2 7 6 3 10 11
1 2 9 8 11 10 3 7 5 6 4
9 10 3 7 6 5 4 1 11 8 2
2 5 8 3 1 7 6 10 9 11 4
7 6 3 4 8 2 11 5 9 1 10
1 2 3 4 5 8 7 6 9 10 11
6 2 5 10 3 1 11 8 7 9 4
1 5 3 4 6 2 11 8 9 10 7
9 3 11 5 4 8 10 7 1 6 2
1 5 3 10 2 6 7 11 8 4 9
1 2 3 4 7 6 5 8 9 10 11
11 5 4 8 2 6 7 9 10 3 1
8 5 2 1 7 3 11 10 9 6 4
5 10 6 11 7 4 8 2 1 9 3

1
hwLVc3Z5-47767936
1
1
1
1
1
1
1
1
1
1
1
1
1
1
1
1
1
1
1
1
1
1
1
1
1
1
1

1
vlUQSpco-79040352
1
1
1
1
1
1
1
1
1
1
1

8
lZlClpao-75941618
zL5onz7d-69690841
H8HLpDGP-12317831
ZhRAACZk-82038220
aeaoHdaQ-41266497
ERo4rrnO-83096753
bQKVdS8R-12512214
EgNE_e1D-24704405
7 5 4 1 6 2 3 8
8 6 1 3 4 2 7 5
1 2 3 8 5 6 7 4
1 2 3 4 5 6 7 8
2 1 4 7 3 6 8 5
6 4 3 1 8 5 2 7
6 4 2 5 8 3 7 1
7 5 8 4 2 6 1 3
5 6 8 2 1 7 3 4
3 6 5 8 1 4 2 7
6 3 2 4 5 1 7 8

1
kVANn8Gc-47888792
1
1
1
1
1
1
1
1
1
1
1
1
1
1
1
1
1
1
1
1
1
1
1
1
1
1
1
1
1
1
1
1
1
1
1
1
1
1
1
